﻿# Anbennar - stuff

headgear = {
	usage = game
	selection_behavior = weighted_random
	fallback = no_headgear

    no_headgear = {
        dna_modifiers = {
            accessory = {
                mode = add
                gene = headgear
                template = no_headgear
                range = { 0 1 } # For the randomness to work correctly
            }
        }   
        weight = {
            base = 0
            modifier = {
                add = 90000
                scope:character ?= {
                    OR = {
                        has_role = agitator
                        has_template = fra_delescluze_character_template # Never ever give Louis Delescluze a hat, any hat. His forehead is too powerful.
                    }
                    is_historical = yes
                    NOR = {
                        has_template = rus_lenin_character_template
                        has_template = gbr_pankhurst_character_template
                        has_template = agitator_emiliano_zapata
                    }
                }
            }
            #Anbennar
            modifier = {
                add = 200  
                elven_clothes_pop_trigger = yes
            }
        }
    }
	
 ### Anbennar Additions ###
   
    gnomish_common_headgear = {
        dna_modifiers = {
            accessory = {
                mode = add
                gene = headgear
                template = gnomish_common_headgear
                range = { 0 1 } # For the randomness to work correctly
            }
        }
        weight = {
            base = 0
            modifier = {
                add = 1000
                OR = {
                    scope:pop ?= {
                        OR = {
                            culture = cu:cliff_gnome
							culture = cu:imperial_gnome
							culture = cu:creek_gnome
					    }
                    }
                }
            }
        }
    }

    gnomish_common_headgear = {
        dna_modifiers = {
            accessory = {
                mode = add
                gene = headgear
                template = gnomish_common_headgear
                range = { 0 1 } # For the randomness to work correctly
            }
        }
        weight = {
            base = 0
            modifier = {
                add = 10000

                OR = {
                    scope:character ?= {
                        OR = {
                            culture = cu:cliff_gnome
							culture = cu:imperial_gnome
							culture = cu:creek_gnome
                        }
                    }
                }
            }
        }
    }
	
    gnomish_frontier_headgear = {
        dna_modifiers = {
            accessory = {
                mode = add
                gene = headgear
                template = gnomish_frontier_headgear
                range = { 0 1 } # For the randomness to work correctly
            }
        }
        weight = {
            base = 0
            modifier = {
                add = 1000
                OR = {
                    scope:pop ?= {
                        OR = {
                            culture = cu:glacier_gnome
							culture = cu:themarian
							culture = cu:vrendzani_kobold
							culture = cu:dalairey
							culture = cu:teira
					    }
                    }
                }
            }
        }
    }

    gnomish_frontier_headgear = {
        dna_modifiers = {
            accessory = {
                mode = add
                gene = headgear
                template = gnomish_frontier_headgear
                range = { 0 1 } # For the randomness to work correctly
            }
        }
        weight = {
            base = 0
            modifier = {
                add = 10000

                OR = {
                    scope:character ?= {
                        OR = {
                            culture = cu:glacier_gnome
							culture = cu:themarian
							culture = cu:vrendzani_kobold
							culture = cu:dalairey
							culture = cu:teira
                        }
                    }
                }
            }
        }
    }
	
		
### AGITATORS ###

    european_agitator_headgear = {
        dna_modifiers = {
            accessory = {
                mode = add
                gene = headgear
                template = european_headgear_agitators
                range = { 0 1 } # For the randomness to work correctly
            }
        }
        weight = {
            base = 0
            modifier = {
                add = 100
                european_clothes_trigger = yes
                slavic_clothes_trigger = no
                south_american_clothes_character_trigger = no
                agitator_character_trigger = yes
            }
        }
    }

    south_american_agitator_headgear = {
        dna_modifiers = {
            accessory = {
                mode = add
                gene = headgear
                template = south_american_headgear_agitators
                range = { 0 1 } # For the randomness to work correctly
            }
        }
        weight = {
            base = 0
            modifier = {
                add = 100
                south_american_clothes_character_trigger = yes
                OR = {
                    agitator_character_trigger = yes
                    scope:character ?= {
                        has_trait = bandit
                    }
                }
            }
        }
    }

    brazilian_agitator_headgear = {
        dna_modifiers = {
            accessory = {
                mode = add
                gene = headgear
                template = male_headgear_gaucho_
                range = { 0 1 } # For the randomness to work correctly
            }
        }
        weight = {
            base = 0
            modifier = {
                add = 90000
                OR = {
                    scope:character ?= {
                        has_template = BRZ_virgulino_ferreira
                    }
                    scope:character ?= {
                        AND = {
                            exists = cu:testorian
                            culture = cu:testorian
                        }
                        OR = {
                            has_role = agitator
                            AND = { # Monarchs don't get to wear this hat, but republican rulers can
                                NAND = {
                                    is_ruler = yes
                                    home_country ?= {
                                        has_law = law_type:law_monarchy
                                    }
                                }
                                has_trait = bandit
                            }
                        }
                    }
                }
            }
        }
    }

    arabic_agitator_headgear = {
        dna_modifiers = {
            accessory = {
                mode = add
                gene = headgear
                template = arabic_headgear_agitators
                range = { 0 1 } # For the randomness to work correctly
            }
        }
        weight = {
            base = 0
            modifier = {
                add = 1000
                scope:character ?= {
                    culture = {
                        has_discrimination_trait = middle_eastern_heritage
                        NOT = { has_discrimination_trait = turkic }
                    }
                }
                agitator_character_trigger = yes
            }
        }
    }

    korean_agitator_headgear = {
        dna_modifiers = {
            accessory = {
                mode = add
                gene = headgear
                template = korean_headgear_agitators
                range = { 0 1 } # For the randomness to work correctly
            }
        }
        weight = {
            base = 0
            modifier = {
                add = 100
                scope:character ?= {
                    culture = cu:korean
                }
                agitator_character_trigger = yes
            }
        }
    }

    japanese_agitator_headgear = {
        dna_modifiers = {
            accessory = {
                mode = add
                gene = headgear
                template = japanese_headgear_agitators
                range = { 0 1 } # For the randomness to work correctly
            }
        }
        weight = {
            base = 0
            modifier = {
                add = 2000
                japanese_clothes_trigger = yes
                OR = {
                    agitator_character_trigger = yes
                    AND = {
                        politician_clothes_trigger = yes
                        armed_forces_clothes_trigger = yes
                        scope:character ?= {
                            owner ?= {
                                has_variable = meiji_restoration_complete
                            }
                            has_ideology = ideology:ideology_traditionalist
                        }
                    }
                }
            }
        }
    }

### END OF AGITATORS. ###

### HISTORICAL CHARACTER CLOTHING ###

    historical_lenin_headgear = {
        dna_modifiers = {
            accessory = {
               mode = add
               gene = headgear
               template = slavic_headgear_agitator_lenin
               range = { 0 1.0 } 
            }
        }

        weight = {
            base = 0
            modifier = {
                add = 90000
                scope:character ?= {
                    has_template = rus_lenin_character_template
                }
            }
        }
    }

    historical_emmeline_pankhurst_headgear = {
        dna_modifiers = {

           accessory = {
               mode = add
               gene = headgear
               template = female_headgear_agitator_pankhurst
               range = { 0 0.1 }
            }
        }

        weight = {
            base = 0
            modifier = {
                add = 90000
                scope:character ?= {
                    has_template = gbr_pankhurst_character_template
                }
            }
        }
    }

    historical_zapata_headgear = {
        dna_modifiers = {
            accessory = {
               mode = add
               gene = headgear
               template = south_american_headgear_agitators
               range = { 0 0.1} 
            }
        }

        weight = {
            base = 0
            modifier = {
                add = 90000
                scope:character ?= {
                    has_template = agitator_emiliano_zapata
                }
            }
        }
    }

    historical_reza_pahlavi_headgear = {
        dna_modifiers = {
            accessory = {
               mode = add
               gene = headgear
               template = reza_shah_pahlavi_cap
               range = { 0 1.0 } 
            }
        }

        weight = {
            base = 0
            modifier = {
                add = 90000

                has_dlc_feature = ep1_cosmetics

                scope:character ?= {
                    has_template = PER_reza_pahlavi
                }
            }
        }
    }

    naser_qajar_headgear = {
        dna_modifiers = {
            accessory = {
                mode = add
                gene = headgear
                template = arabic_naser_qajar
                range = { 0 1 } # For the randomness to work correctly
            }
        }

        weight = {
            base = 0
            modifier = {
                add = 90000

                has_dlc_feature = ep1_cosmetics

                scope:character ?= {
                    age > 12
                    has_template = per_nasir_al_din_qajar_template
                    is_ruler = yes
                }
            }
        }
    }

### END OF HISTORICAL CLOTHING ###

    chinese_imperial_headgear = {
        dna_modifiers = {
            accessory = {
                mode = add
                gene = headgear
                template = chinese_imperial_headgear
                range = { 0 1 } # For the randomness to work correctly
            }
        }
        weight = {
            base = 0
            modifier = {
               add = 100
               chinese_imperial_clothes_trigger = yes
            }
        }
    }

    japanese_imperial_headgear = {
        dna_modifiers = {
            accessory = {
                mode = add
                gene = headgear
                template = Japanese_imperial_headgear
                range = { 0 1 } # For the randomness to work correctly
            }
        }
        weight = {
            base = 0
            modifier = {
                add = 100
                japanese_imperial_clothes_trigger = yes
            }
        }
    }

    european_royal_headgear = {
        dna_modifiers = {
            accessory = {
                mode = add
                gene = headgear
                template = european_royal_headgear
                range = { 0 1 } # For the randomness to work correctly
            }
        }
        weight = {
            base = 0
            modifier = {
               add = 100
               european_clothes_trigger = yes
               monarchy_clothes_trigger = yes
            }
        }
    }

    european_common_headgear = {
        dna_modifiers = {
            accessory = {
                mode = add
                gene = headgear
                template = european_common_headgear
                range = { 0 1 } # For the randomness to work correctly
            }
        }
        weight = {
            base = 0
            modifier = {
                add = 10
                european_clothes_trigger = yes
                politician_clothes_trigger = yes
                armed_forces_clothes_trigger = no
            }
            modifier = {
                add = 90000
                scope:character ?= {
                    has_template = agitator_alfred_hugenberg
                }
            }
        }
    }

    indian_military_headgear = {
        dna_modifiers = {
            accessory = {
                mode = add
                gene = headgear
                template = arabic_turban
                range = { 1 1 } # For the randomness to work correctly
            }
        }
        weight = {
            base = 0
            modifier = {
                add = 1000
                OR = {
                    AND = {
                        exists = scope:pop
                        scope:pop = {
                            religion = rel:sikh
                            NOT = { is_pop_type = clergymen }
                        }
                    }
                    AND = {
                        exists = scope:character
                        scope:character = {
                            religion = rel:sikh
                            NAND = {
                                is_ruler = yes
								exists = home_country
                                home_country = {
                                    has_law = law_type:law_monarchy
                                }
                            }
                        }
                    }
                    AND = {
                        indian_clothes_pop_trigger = yes
                        OR = {
                            soldier_clothes_pop_trigger = yes
                            officers_clothes_pop_trigger = yes
                        }
                    }
                }
            }
        }
    }

    indian_sikh_clergy_headgear = {
        dna_modifiers = {
            accessory = {
                mode = add
                gene = headgear
                template = indian_common_headgear
                range = { 0 1 } # For the randomness to work correctly
            }
        }
        weight = {
            base = 0
            modifier = {
                add = 1000
                exists = scope:pop
                scope:pop = {
                    religion = rel:sikh
                    is_pop_type = clergymen
                }
            }
        }
    }

    european_military_headgear = {
        dna_modifiers = {
            accessory = {
                mode = add
                gene = headgear
                template = european_military_headgear
                range = { 0 1 } # For the randomness to work correctly
            }
        }
        weight = {
            base = 0
            modifier = {
                add = 100
                republic_clothes_trigger = no
                european_clothes_trigger = yes
                american_clothes_trigger = no
                british_empire_clothes_trigger = no
                french_empire_clothes_trigger = no
                russian_empire_clothes_trigger = no
                german_clothes_trigger = no
                # NOT = {
                #     scope:character ?= {
				# 		exists = home_country
                #         home_country = {
                #             c:CSA ?= this
                #             is_subject = no
                #         }
                #     }
                # }
                agitator_character_trigger = no
                OR = {
                    scope:character = {
                        has_role = general
                        is_ruler = no
                    }
                    AND = {
                        armed_forces_clothes_trigger = yes
                        politician_clothes_trigger = yes
                    }
                    officers_clothes_pop_trigger = yes
                }  
            }
        }
    }

    european_admiral_headgear = {
        dna_modifiers = {
            accessory = {
                mode = add
                gene = headgear
                template = european_admiral_headgear
                range = { 0 1 } # For the randomness to work correctly
            }
        }
        weight = {
            base = 0
            modifier = {
                add = 100
                european_clothes_trigger = yes
                agitator_character_trigger = no
                OR = {
                    scope:character = {
                       has_role = admiral
                    }
                    scope:character = {
                        has_role = general
                        is_ruler = yes
						exists = home_country
                        home_country = {
                            NOT = { has_law = law_type:law_monarchy}
                        }
                    }
                }
            }
        }
    }

    vivandiere_headgear = {
        dna_modifiers = {
            accessory = {
                mode = add
                gene = headgear
                template = vivandiere_headgear
                range = { 0 1 } # For the randomness to work correctly
           
            } 
        }
        weight = {
            base = 0
            modifier = {
                add = 10000

                OR = {
                    european_clothes_trigger = yes
                    scope:character ?= {
                        OR = {
                            culture = cu:cherokee
                            culture = cu:muskogean
                        }
                    }
                    african_diaspora_clothes_trigger = yes
                }
                scope:character ?= {
                    is_female = yes

                    OR = {
                        has_role = general
                        has_role = admiral
                        AND = {
                            is_interest_group_type = ig_armed_forces
                            has_role = politician
                            OR = {  # A monarch shouldn't wear this, but a republican ruler can
                                AND = {
                                    is_ruler = no
                                    home_country ?= {
                                        has_law = law_type:law_monarchy
                                    }
                                }
                                AND = {
                                    is_ruler = yes
                                    home_country ?= {
                                        NOT = { has_law = law_type:law_monarchy }
                                    }
                                }
                            }
                        }
                        AND = {
                            has_role = agitator
                            is_interest_group_type = ig_armed_forces
                        }
                    }
                    owner ?= {
                        NOT = { has_technology_researched = bolt_action_rifles }
                    }
                }
            }
        }
    }

    female_military_late_headgear = {
        dna_modifiers = {
            accessory = {
                mode = add
                gene = headgear
                template = female_headgear_european_common_02
                range = { 0 1 } # For the randomness to work correctly
           
            } 
        }
        weight = {
            base = 0
            modifier = {
                add = 10000

                OR = {
                    european_clothes_trigger = yes
                    scope:character ?= {
                        OR = {
                            culture = cu:cherokee
                            culture = cu:muskogean
                        }
                    }
                    african_diaspora_clothes_trigger = yes
                }
                scope:character ?= {
                    is_female = yes

                    OR = {
                        has_role = general
                        has_role = admiral
                        AND = {
                            is_interest_group_type = ig_armed_forces
                            has_role = politician
                            OR = {  # A monarch shouldn't wear this, but a republican ruler can
                                AND = {
                                    is_ruler = no
                                    home_country ?= {
                                        has_law = law_type:law_monarchy
                                    }
                                }
                                AND = {
                                    is_ruler = yes
                                    home_country ?= {
                                        NOT = { has_law = law_type:law_monarchy }
                                    }
                                }
                            }
                        }
                        AND = {
                            has_role = agitator
                            is_interest_group_type = ig_armed_forces
                        }
                    }
                    owner ?= {
                        has_technology_researched = bolt_action_rifles
                    }
                }
            }
        }
    }

    american_military_early_headgear = {
        # when updating triggers on this, please update american_military_hairstyles in game\gfx\portraits\portrait_modifiers\01_headgear.txt as well so that triggers continue to match up
        dna_modifiers = {
            accessory = {
                mode = add
                gene = headgear
                template = black_cap
                range = { 0 1 }
            }
        }
        weight = {
            base = 0
            modifier = {
                add = 10000

                c:USA ?= {
                    NOT = { has_technology_researched = rifling }
                }
                american_clothes_pop_trigger = yes
                OR = {
                    officers_clothes_pop_trigger = yes
                    soldier_clothes_pop_trigger = yes
                }
            }
        }
    }

    american_military_headgear = {
        # when updating triggers on this, please update american_military_hairstyles in game\gfx\portraits\portrait_modifiers\01_headgear.txt as well so that triggers continue to match up
        dna_modifiers = {
            accessory = {
                mode = add
                gene = headgear
                template = american_military_headgear
                range = { 0 0.8 } # For the randomness to work correctly
            }
        }
        weight = {
            base = 0
            modifier = {
                add = 100
                OR = {
                    AND = {
                        c:USA ?= {
                            has_technology_researched = rifling
                            NOT = { has_technology_researched = bolt_action_rifles }
                        }
                        american_clothes_pop_trigger = yes
                        OR = {
                            officers_clothes_pop_trigger = yes
                            soldier_clothes_pop_trigger = yes
                        }
                    }
                    AND = {
                        american_clothes_trigger = yes
                        agitator_character_trigger = no
                        OR = {
                            scope:character ?= {
                                has_role = general
                                is_female = no
                            }
                            AND = {
                                politician_clothes_trigger = yes
                                armed_forces_clothes_trigger = yes
                                scope:character ?= {
                                    is_female = no
                                }
                            }
                        }
                    }
                }
            }
        }
    }

    american_military_late_headgear = {
        # when updating triggers on this, please update american_military_hairstyles in game\gfx\portraits\portrait_modifiers\01_headgear.txt as well so that triggers continue to match up
        dna_modifiers = {
            accessory = {
                mode = add
                gene = headgear
                template = american_military_headgear
                range = { 0.9 1.0 } # For the randomness to work correctly
            }
        }
        weight = {
            base = 0
            # modifier = {
            #     add = 150
            #     c:USA ?= {
            #         has_technology_researched = bolt_action_rifles
            #     }
            #     OR = {
            #         AND = {
            #             american_clothes_pop_trigger = yes
            #             OR = {
            #                 officers_clothes_pop_trigger = yes
            #                 soldier_clothes_pop_trigger = yes
            #             }
            #         }
            #         AND = {
            #             american_clothes_trigger = yes
            #             agitator_character_trigger = no
            #             scope:character = {
            #                 has_role = general
            #             }
            #         }
            #     }
            # }
        }
    }

    american_confederate_military_headgear = {
        # when updating triggers on this, please update american_military_hairstyles in game\gfx\portraits\portrait_modifiers\01_headgear.txt as well so that triggers continue to match up
        dna_modifiers = {
            accessory = {
                mode = add
                gene = headgear
                template = american_confederate_military_headgear
                range = { 0 1 } # For the randomness to work correctly
            }
        }
        weight = {
            base = 0
            # modifier = {
            #     add = 100
            #     exists = c:CSA
            #     OR = {
            #         AND = {
            #             exists = scope:character
            #             scope:character = {
            #                 has_role = general
			# 				exists = home_country
            #                 home_country = c:CSA
            #             }
            #             agitator_character_trigger = no
            #         }
            #         AND = {
            #             politician_clothes_trigger = yes
            #             armed_forces_clothes_trigger = yes
            #             scope:character = {
			# 				exists = home_country
			# 				home_country = c:CSA
			# 			}
            #             agitator_character_trigger = no
            #         }
            #         AND = {
            #             exists = scope:pop
            #             scope:pop = {
            #                 OR = {
            #                     is_pop_type = officers
            #                     is_pop_type = soldiers
            #                 }
            #                 home_country = c:CSA
            #             }
            #         }
            #     }
            # }
        }
    }

    british_military_headgear = {
        dna_modifiers = {
            accessory = {
                mode = add
                gene = headgear
                template = british_military_headgear
                range = { 0 0.5 }
            }
        }
        weight = {
            base = 0
            modifier = {
                add = 100
                british_empire_clothes_trigger = yes
                agitator_character_trigger = no
                OR = {
                    scope:character = {
                        has_role = general
                    }
                    AND = {
                        politician_clothes_trigger = yes
                        armed_forces_clothes_trigger = yes
                    }
                }
            }
        }
    }

    british_military_soldier_headgear = {
        dna_modifiers = {
            accessory = {
                mode = add
                gene = headgear
                template = gb_01
                range = { 0 1 }
            }
        }
        weight = {
            base = 0
            modifier = {
                add = 500

                scope:pop ?= {
                    culture = {
                        has_discrimination_trait = european_heritage
                    }
                    owner = {
                        c:GBR ?= this
                    }
                }
                OR = {
                    soldier_clothes_pop_trigger = yes
                    officers_clothes_pop_trigger = yes
                }

                c:GBR ?= {
                    NOT = { has_technology_researched = repeaters }
                }
            }
        }
    }

    british_military_soldier_mid_late_headgear = {
        dna_modifiers = {
            accessory = {
                mode = add
                gene = headgear
                template = european_military_headgear
                accessory = male_headgear_european_military_09
            }
        }
        weight = {
            base = 0
            modifier = {
                add = 500

                scope:pop ?= {
                    culture = {
                        has_discrimination_trait = european_heritage
                    }
                    owner = {
                        c:GBR ?= this
                    }
                }
                OR = {
                    soldier_clothes_pop_trigger = yes
                    officers_clothes_pop_trigger = yes
                }

                c:GBR ?= {
                    has_technology_researched = repeaters
                }
            }
        }
    }

    british_military_headgear_late = {
        dna_modifiers = {
            accessory = {
                mode = add
                gene = headgear
                template = late_military_cap
                range = { 0 1 }
            }
        }
        weight = {
            base = 0
            modifier = {
                add = 20000

                has_dlc_feature = ep1_cosmetics

                british_empire_clothes_pop_trigger = yes
                officers_clothes_pop_trigger = yes

                c:GBR ?= {
                    has_technology_researched = bolt_action_rifles
                }
            }
        }
        weight = {
            base = 0
            modifier = {
                add = 20000

                has_dlc_feature = ep1_cosmetics

                british_empire_clothes_trigger = yes

                scope:character ?= {
                    age >= define:NCharacters|ADULT_AGE
                    has_role = general
                }

                c:GBR ?= {
                    has_technology_researched = bolt_action_rifles
                }
            }
        }
    }

    british_military_puppet_headgear = {
        dna_modifiers = {
            accessory = {
                mode = add
                gene = headgear
                template = european_military_headgear
                range = { 0.7 0.7 } # For the randomness to work correctly
            }
        }
        weight = {
            base = 0
            modifier = {
                add = 100
                british_empire_clothes_p_trigger = yes
                officers_clothes_pop_trigger  = yes
            }
        }
    }

    french_military_headgear = {
        dna_modifiers = {
            accessory = {
                mode = add
                gene = headgear
                template = french_military_headgear
                range = { 0 1 }
            }
        }
        weight = {
            base = 0
            modifier = {
                add = 100
                OR = {
                    AND = {
                        french_empire_clothes_trigger = yes
                        OR = {
                            scope:character = {
                                has_role = general
                            }
                            AND = {
                                politician_clothes_trigger = yes
                                armed_forces_clothes_trigger = yes
                            }
                        }
                        agitator_character_trigger = no
                    }
                    AND = {
                        scope:pop ?= {
                            culture = {
                                has_discrimination_trait = european_heritage
                            }
                            owner = {
                                c:FRA ?= this
                            }
                        }
                        OR = {
                            soldier_clothes_pop_trigger = yes
                            officers_clothes_pop_trigger = yes
                        }
                    }
                }
            }
        }
    }

    french_military_headgear_late = { # only officers wear the horizon blue cylindrical kepi, for now
        dna_modifiers = {
            accessory = {
                mode = add
                gene = headgear
                template = european_late_military_headgear
                accessory = male_headgear_european_military_cap_french_01
            }
        }
        weight = {
            base = 0
            modifier = {
                add = 20000

                has_dlc_feature = ep1_cosmetics
                has_dlc_feature = voice_of_the_people_content

                french_empire_clothes_pop_trigger = yes
                officers_clothes_pop_trigger = yes

                c:FRA ?= {
                    has_technology_researched = automatic_machine_guns
                }
            }
        }
    }

    japanese_meiji_military_headgear = {
        dna_modifiers = {
            accessory = {
                mode = add
                gene = headgear
                template = european_military_02_colors
                range = { 0 1 }
            }
        }
        weight = {
            base = 0
            modifier = {
                add = 1200
                OR = {
                    AND = {
                        scope:character ?= {
                            culture = cu:japanese
                            owner ?= {
                                has_variable = meiji_restoration_complete
                            }
                        }
                        OR = {
                            scope:character = {
                                has_role = general
                            }
                            AND = {
                                politician_clothes_trigger = yes
                                armed_forces_clothes_trigger = yes
                                scope:character ?= {
                                    NOT = { has_ideology = ideology:ideology_traditionalist }
                                }
                            }
                        }
                        agitator_character_trigger = no
                    }
                    AND = {
                        scope:pop ?= {
                            culture = cu:japanese
                            owner = {
                                has_variable = meiji_restoration_complete
                            }
                        }
                        OR = {
                            soldier_clothes_pop_trigger = yes
                            officers_clothes_pop_trigger = yes
                        }
                    }
                }
            }
        }
    }

    #russian_military_headgear = {
    #    dna_modifiers = {
    #        accessory = {
    #            mode = add
    #            gene = headgear
    #            template = russian_military_headgear
    #            range = { 0 1 }
    #        }
    #    }
    #    weight = {
    #        base = 0
    #        modifier = {
    #            add = 100
    #            russian_empire_clothes_trigger = yes
    #            OR = {
    #                scope:character = {
    #                    has_role = general
    #                }
    #                AND = {
    #                    politician_clothes_trigger = yes
    #                    armed_forces_clothes_trigger = yes
    #                }
    #            }
    #            agitator_character_trigger = no
    #        }
    #    }
    #}

    russian_military_headgear_soldier = {
        dna_modifiers = {
             accessory = {
                mode = add
                gene = headgear
                template = russian_military_headgear
                accessory = male_headgear_russian_military_01
            }
        }
        weight = {
            base = 0
            modifier = {
                add = 10000

                has_dlc_feature = ep1_cosmetics

                russian_empire_clothes_pop_trigger = yes
                OR = {
                    soldier_clothes_pop_trigger = yes
                    officers_clothes_pop_trigger = yes
                }
            }
        }
    }

    russian_military_late_headgear = {
        dna_modifiers = {
            accessory = {
                mode = add
                gene = headgear
                template = russian_military_headgear
                accessory = male_headgear_european_military_03_late_russian
            }
        }
        weight = {
            base = 0
            modifier = {
                add = 15000

                has_dlc_feature = ep1_cosmetics # the hat isn't DLC material but it doesn't make sense without DLC outfits

                c:RUS ?= {
                    has_technology_researched = bolt_action_rifles
                }
                OR = {
                    AND = {
                        russian_empire_clothes_pop_trigger = yes
                        OR = {
                            officers_clothes_pop_trigger = yes
                            soldier_clothes_pop_trigger = yes
                        }
                    }
                    AND = {
                        russian_empire_clothes_trigger = yes
                        agitator_character_trigger = no
                        scope:character = {
                            has_role = general
                        }
                    }
                }
            }
        }
    }

    korean_empire_military_headgear = {
        dna_modifiers = {
            accessory = {
                mode = add
                gene = headgear
                template = korean_empire_military_headgear
                range = { 0 1 }
            }
        }
        weight = {
            base = 0
            modifier = {
                add = 1200
                OR = {
                    AND = {
                        scope:character ?= {
                            culture = cu:korean
                            owner = {
                                has_variable = KOR_korean_empire_declared
                            }
                        }
                        OR = {
                            scope:character = {
                                has_role = general
                            }
                            AND = {
                                politician_clothes_trigger = yes
                                armed_forces_clothes_trigger = yes
                                scope:character ?= {
                                    NOT = { has_ideology = ideology:ideology_traditionalist }
                                }
                            }
                        }
                        agitator_character_trigger = no
                    }
                    AND = {
                        scope:pop ?= {
                            culture = cu:korean
                            owner = {
                                has_variable = KOR_korean_empire_declared
                            }
                        }
                        OR = {
                            soldier_clothes_pop_trigger = yes
                            officers_clothes_pop_trigger = yes
                        }
                    }
                }
            }
        }
    }

    brazilian_military_headgear = {
        dna_modifiers = {
            accessory = {
                mode = add
                gene = headgear
                template = brazilian_military_headgear
                accessory = male_headgear_european_military_02_blue
            }
        }
        weight = {
            base = 0
            modifier = {
                add = 1000
                scope:character ?= {
                    exists = c:BRZ
                    home_country ?= {
                        OR = {
                            AND = {
                                c:BRZ = this
                                is_subject = no # preventing uniform conflicts if BRZ becomes a subject of another country with puppet uniforms
                            }
                            is_subject_of = c:BRZ
                        }       
                    }
                    OR = {
                        has_role = general
                        AND = {
                            has_role = politician
                            is_ruler = no
                            is_interest_group_type = ig_armed_forces
                        }
                    }
                    agitator_character_trigger = no
                }                
            }
        }
    }

    brazilian_officers_headgear = {
        dna_modifiers = {
            accessory = {
                mode = add
                gene = headgear
                template = brazilian_military_headgear
                range = { 0 0.66 }
            }
        }
        weight = {
            base = 0
            modifier = {
                add = 100
                scope:pop ?= {
                    exists = c:BRZ
                    home_country = {
                        OR = {
                            AND = {
                                c:BRZ = this
                                is_subject = no # preventing uniform conflicts if BRZ becomes a subject of another country with puppet uniforms
                            }
                            is_subject_of = c:BRZ
                        }       
                    }
                    is_pop_type = officers
                }                
            }
        }
    }

    brazilian_soldiers_headgear = {
        dna_modifiers = {
            accessory = {
                mode = add
                gene = headgear
                template = brazilian_military_headgear
                range = { 0.34 1 }
            }
        }
        weight = {
            base = 0
            modifier = {
                add = 100
                scope:pop ?= {
                    exists = c:BRZ
                    home_country = {
                        OR = {
                            AND = {
                                c:BRZ = this
                                is_subject = no # preventing uniform conflicts if BRZ becomes a subject of another country with puppet uniforms
                            }
                            is_subject_of = c:BRZ
                        }       
                    }
                    is_pop_type = soldiers
                }                
            }
        }
    }

    garibaldi_military_headgear = {
        dna_modifiers = {
            accessory = {
                mode = add
                gene = headgear
                template = french_military_headgear
                accessory = male_headgear_european_military_02_red # Only selecting the red kepi with gold embroidery
            }
        }
        weight = {
            base = 0
            # modifier = {
            #     add = 200
            #     scope:pop ?= {
            #         home_country = {
            #             any_scope_character = {
            #                 has_variable = garibaldi_var # Garibaldi can be an agitator or general or politician, it's all valid
            #             }
            #             OR = {
            #                 is_unification_candidate = ITA
            #                 AND = {
            #                     exists = c:ITA
            #                     c:ITA = this
            #                 }
            #             }
            #         }
            #     }
            #     OR = {
            #         officers_clothes_pop_trigger = yes
            #         soldier_clothes_pop_trigger = yes
            #     }
            # }
        }
    }

    german_military_headgear = {
        dna_modifiers = {
            accessory = {
                mode = add
                gene = headgear
                template = german_military_headgear
                range = { 0 1 } # For the randomness to work correctly
            }
        }
        weight = {
            base = 0
            modifier = {
                add = 100
                german_clothes_trigger = yes
                agitator_character_trigger = no
                OR = {
                    scope:character = {
                        has_role = general
                    }
                    AND = {
                        politician_clothes_trigger = yes
                        armed_forces_clothes_trigger = yes
                    }
                }
            }
        }
    }

    german_officers_headgear = {
        dna_modifiers = {
            accessory = {
                mode = add
                gene = headgear
                template = german_military_headgear
                range = { 0 1 } # For the randomness to work correctly
            }
        }
        weight = {
            base = 0
            modifier = {
                add = 1000
                german_clothes_pop_trigger = yes
                officers_clothes_pop_trigger = yes
            }
        }
    }

    ethiopian_royal_headgear = {
        dna_modifiers = {
            accessory = {
                mode = add
                gene = headgear
                template = ethiopian_royal_headgear
                range = { 0 1 } # For the randomness to work correctly
            }
        }
        weight = {
            base = 0
            modifier = {
                add = 1000
                ethiopian_clothes_trigger = yes
                agitator_character_trigger = no
                scope:character = {
                    is_ruler = yes
                }
            }
        }
    }

    indian_royal_headgear = {
        dna_modifiers = {
            accessory = {
                mode = add
                gene = headgear
                template = indian_royal_headgear
                range = { 0 1 } # For the randomness to work correctly
            }
        }
        weight = {
            base = 0
            modifier = {
                add = 100
                indian_clothes_trigger = yes
                agitator_character_trigger = no
                scope:character = {
                    is_ruler = yes
                }
            }
        }
    }

    indian_high_headgear = {
        dna_modifiers = {
            accessory = {
                mode = add
                gene = headgear
                template = indian_high_headgear
                range = { 0 1 } # For the randomness to work correctly
            }
        }

        weight = {
            base = 0
            modifier = {
                add = 100
                indian_clothes_pop_trigger = yes
                upper_clothes_pop_trigger = yes
            }
        }
    }

    indian_clothes = {
        dna_modifiers = {
            accessory = {
                mode = add
                gene = headgear
                template = indian_high_headgear
                range = { 0 1 } # For the randomness to work correctly
            }
        }  
        weight = {
            base = 0
            modifier = {
                add = 100
                hindu_clothes_pop_trigger = yes
                clergy_clothes_pop_trigger = yes
            }
        }
    }

    arabic_turban = {
        dna_modifiers = {
            accessory = {
                mode = add
                gene = headgear
                template = arabic_turban
                range = { 0 1 } # For the randomness to work correctly
            }
        }
        weight = {
            base = 0
            modifier = {
                add = 100
                arabic_clothes_trigger = yes
            }
        }
    }
    arabic_middle_tier = {
        dna_modifiers = {
            accessory = {
                mode = add
                gene = headgear
                template = arabic_middle_tier
                range = { 0 1 } # For the randomness to work correctly
            }
        }
        weight = {
            base = 0
            modifier = {
                add = 200
                AND = {
                    arabic_clothes_trigger = yes          
                }
            }
        }
    }
    arabic_fez = {
        dna_modifiers = {
            accessory = {
                mode = add
                gene = headgear
                template = arabic_fez
                range = { 0 1 } # For the randomness to work correctly
            }
        }
        weight = {
            base = 0
            modifier = {
                add = 200
                AND = {
                    arabic_clothes_trigger = yes
                    arabic_fez_trigger = yes
                }
            }
        }
    }
    african_headgear = {
        dna_modifiers = {
            accessory = {
                mode = add
                gene = headgear
                template = african_common_headgear
                range = { 0 1 } # For the randomness to work correctly
            }
        }
        weight = {
            base = 0
            modifier = {
                add = 100
                scope:character ?= {
                    culture = {
                        OR = {
                            has_discrimination_trait = west_african_culture_group
                            has_discrimination_trait = east_african_culture_group
                        }
                        NOR = { 
                            has_discrimination_trait = ethiopian 
                            has_discrimination_trait = bantu
                            THIS = cu:maasai
                        }
                    }
                }
            }
        }
    }

#Pops

    arabic_low_headgear = {
        dna_modifiers = {
            accessory = {
                mode = add
                gene = headgear
                template = arabic_low_tier
                range = { 0 1 } # For the randomness to work correctly
            }
        }
        weight = {
            base = 0
            modifier = {
                add = 100
                arabic_clothes_pop_trigger = yes
                poor_clothes_pop_trigger = yes
            }
        }
    }

    arabic_middle_headgear = {
        dna_modifiers = {
            accessory = {
                mode = add
                gene = headgear
                template = arabic_middle_tier
                range = { 0 1 } # For the randomness to work correctly
            }
        }
        weight = {
            base = 0
            modifier = {
                add = 100
                arabic_clothes_pop_trigger = yes
            }
        }
    }

    central_asian_headgear = {
        dna_modifiers = {
            accessory = {
                mode = add
                gene = headgear
                template = central_asian
                range = { 0 1 } # For the randomness to work correctly
            }
        }
        weight = {
            base = 0
            modifier = {
                add = 100
                central_asian_clothes_pop_trigger = yes
                upper_clothes_pop_trigger = yes             
            }
        }
    }

    mongol_noble_headgear = {
        dna_modifiers = {
            accessory = {
                mode = add
                gene = headgear
                template = mongolian_hats
                range = { 0 1 } # For the randomness to work correctly
            }
        }
        weight = {
            base = 0
            modifier = {
                add = 100
                exists = scope:pop
                scope:pop = {
                    is_pop_type = aristocrats
                    culture = {
                        has_discrimination_trait = mongol_language
                    }
                }
            }
        }
    }

    chinese_common_headgear = {
        dna_modifiers = {
            accessory = {
                mode = add
                gene = headgear
                template = chinese_common_headgear
                range = { 0 1 } # For the randomness to work correctly
            }
        }
        weight = {
            base = 0
            modifier = {
                add = 100
                chinese_manchu_queue_hairstyle_pops_trigger = yes
                poor_clothes_pop_trigger = yes
            }
        }
    }

    japanese_common_headgear = {
        dna_modifiers = {
            accessory = {
                mode = add
                gene = headgear
                template = Japanese_common_headgear
                range = { 0 1 } # For the randomness to work correctly
            }
        }
        weight = {
            base = 0
            modifier = {
                add = 100
                japanese_clothes_pop_trigger = yes
                scope:pop ?= {
                    OR = {
                        is_pop_type = farmers
                        is_pop_type = peasants
                        is_pop_type = laborers
                        AND = {
                            is_pop_type = machinists
                            owner = {
                                NOT = { has_variable = meiji_restoration_complete }
                            }
                        }
                    }
                }   
            }
        }
    }

    european_capitalist_headgear = {
        dna_modifiers = {
            accessory = {
                mode = add
                gene = headgear
                template = european_tophat
                range = { 0 1 } # For the randomness to work correctly
            }
        }
        weight = {
            base = 0
            modifier = {
                add = 100

                upper_clothes_pop_trigger = yes
                OR = {
                    european_clothes_pop_trigger = yes
                    AND = {
                        exists = scope:pop
                        scope:pop = { 
                            OR = {
                                culture = cu:cherokee 
                                culture = cu:muskogean
                            }
                        }
                    }
                }
            }
            modifier = {
                add = 1000
                european_clothes_trigger = yes
                scope:character ?= {
                    age >= define:NCharacters|ADULT_AGE
                    OR = {
                        AND = {
                            is_interest_group_type = ig_landowners
                            has_role = politician
                            NOR = {
                                has_role = general
                                has_role = admiral
                            }
                            is_ruler = no
                        }
                        has_template = usa_lincoln_character_template
                    }
                }
            }
            modifier = {
                add = 10000

                scope:character ?= {
                   has_variable = THE_NEFARIOUS_TOP_HAT
                }
            }
        }
    }

    european_bowler_hat = {
        dna_modifiers = {
            accessory = {
                mode = add
                gene = headgear
                template = european_bowlerhat
                range = { 0 1 } # For the randomness to work correctly
            }
        }
        weight = {
            base = 0
            modifier = {
                add = 100
                european_clothes_pop_trigger = yes
                middle_clothes_pop_trigger = yes
               
           }
        }
    }

    european_flat_cap = {
        dna_modifiers = {
            accessory = {
                mode = add
                gene = headgear
                template = european_flatcap
                range = { 0 1 } # For the randomness to work correctly
            }
        }
        weight = {
            base = 0
            modifier = {
                add = 100
                european_clothes_pop_trigger = yes
                poor_clothes_pop_trigger = yes
                peasants_clothes_pop_trigger = no
            }
        }
    }

    native_american_char_headgear_01 = {
        dna_modifiers = {
            accessory = {
                mode = add
                gene = headgear
                template = native_american_common_headgear
                range = { 0 1 } # For the randomness to work correctly
            }
        }
        weight = {
            base = 0
            modifier = {
                add = 100
                native_american_clothes_trigger = yes
                ruler_clothes_trigger = yes
                scope:character = {
                    is_ruler = yes
                }
            }
        }
    }

    native_american_char_headgear_02 = {
        dna_modifiers = {
            accessory = {
                mode = add
                gene = headgear
                template = native_american_common_headgear
                range = { 0 1 }
            }
        }

        weight = {
            base = 0
            modifier = {
                add = 101
                native_north_american_clothes_trigger = yes
                ruler_clothes_trigger = yes
                scope:character = {
                    is_ruler = yes
                    is_female = no
                }
            }
        }
    }

    native_american_char_headgear_03 = {
        dna_modifiers = {
            accessory = {
                mode = add
                gene = headgear
                template = native_american_high_headgear
                range = { 0 1 } # For the randomness to work correctly
            }
        }
        weight = {
            base = 0
            modifier = {
                add = 1000
                ruler_clothes_trigger = yes
                scope:character = {
                    is_ruler = yes
                    OR = {
                        culture = cu:comanche
                        culture = cu:paiute
                        culture = cu:dakota
                        culture = cu:cree
                        culture = cu:nez_perce
                        culture = cu:siouan
                    }
                }
            }
        }
    }

    native_american_bandanna = {
        dna_modifiers = {
            accessory = {
                mode = add
                gene = headgear
                template = native_american_common_headgear
                range = { 0 1 } # For the randomness to work correctly
            }
        }

        weight = {
            base = 0
            modifier = {
                add = 100
                native_american_clothes_pop_trigger = yes   
            }
        }
    }

    arabic_military_fez = { # Excludes the fancy female headgear meant for high class pops
        dna_modifiers = {
            accessory = {
                mode = add
                gene = headgear
                template = arabic_military_fez
                range = { 0 1 } # For the randomness to work correctly
            }
        }
        weight = {
            base = 0
            modifier = {
                add = 200
                arabic_military_fez_pop_trigger = yes
                soldier_clothes_pop_trigger = yes
            }
        }
    }

    european_peasants_headgear = {
        dna_modifiers = {
            accessory = {
                mode = add
                gene = headgear
                template = european_strawhat
                range = { 0 1 } # For the randomness to work correctly
           
            } 
        }
        weight = {
            base = 0
            modifier = {
                add = 200
                AND = {
                    peasants_clothes_pop_trigger = yes
                    european_clothes_pop_trigger = yes
                }
            }
        }
    }

    slavik_kokoshnik_headgear = {
        dna_modifiers = {
           accessory = {
               mode = add
               gene = headgear
               template = female_headgear_slavic_kokoshnik
               range = { 0 1 }
            }
        }

        weight = {
            base = 0
            modifier = {
                add = 11000
                has_cosmetic_dlc = "Dawn of Wonder"
                OR = {
                    AND = {
                        scope:character ?= {
                            culture = {
                                has_discrimination_trait = east_slavic
                            }
                            is_female = yes
                            OR = {
                                has_variable = getting_married
                                has_modifier = marriage_popularity
                            }
                        }
                    }
                    AND = {
                        upper_clothes_pop_trigger = yes
                        scope:pop ?= { # Wear this clothing either during Midsummer or during a Royal Wedding
                            culture = {
                                has_discrimination_trait = east_slavic
                            }
                            OR = {
                                scope:pop ?= {
                                    month = 5 # June. The trigger for months is on a 0-11 scale.
                                }
                                owner = {
                                    OR = {
                                        has_modifier = royal_marriage
                                        any_scope_character = {
                                            OR = {
                                                is_ruler = yes
                                                is_heir = yes
                                            }
                                            has_modifier = marriage_popularity
                                        }
                                    }
                                }
                            }
                        }
                    }
                }
            }
        }
    }

    midsummer_headgear = {
        dna_modifiers = {
           accessory = {
               mode = add
               gene = headgear
               template = female_headgear_slavic_midsummer
               range = { 0 1 }
            }
        }

        weight = {
            base = 0
            modifier = {
                add = 2000
                has_cosmetic_dlc = "Dawn of Wonder"
                OR = {
                    AND = {
                        slavic_clothes_pop_trigger = yes
                        middle_clothes_pop_trigger = yes
                    }
                    AND = {
                        nordic_clothes_pop_trigger = yes
                        OR = {
                            middle_clothes_pop_trigger = yes
                            upper_clothes_pop_trigger = yes
                        }
                    }
                }
                scope:pop ?= {
                    month = 5 # June. The trigger for months is on a 0-11 scale.
                }
            }
        }
    }

    pierrot_headgear = {
        dna_modifiers = {
           accessory = {
               mode = add
               gene = headgear
               template = male_headgear_carnaval_pierrot
               range = { 0 1 }
            }
        }

        weight = {
            base = 0
            modifier = {
                add = 2000
                has_cosmetic_dlc = "Dawn of Wonder"
                OR = {
                    european_clothes_pop_trigger = yes
                    south_american_clothes_pop_trigger = yes
                }

                OR = {
                    middle_clothes_pop_trigger = yes
                    upper_clothes_pop_trigger = yes
                }

                scope:pop ?= {
                    religion = rel:catholic
                    month = 1 # Carnival is /usually/ in February
                }
            }
        }
    }

    brazilian_bahiana_headgear = {
        dna_modifiers = {
           accessory = {
               mode = add
               gene = headgear
               template = brazil_bahiana_headgear
               range = { 0 1 }
            }
        }
        weight = {
            base = 0
            modifier = {
                add = 2000

                OR = {
                    scope:character ?= {
                        culture = cu:afro_brazilian
                        is_ruler = no
                        is_interest_group_type = ig_rural_folk
                    }
                    scope:pop ?= {
                        culture = cu:afro_brazilian
                        OR = {
                            is_pop_type = farmers
                            is_pop_type = peasants
                            is_pop_type = laborers
                            is_pop_type = machinists
                        }
                    }
                }
            }
        }
    }

    zulu_ruler_headgear = {
        dna_modifiers = {
            accessory = {
                mode = add
                gene = headgear
                template = zulu_impi_headgear
                accessory = male_headgear_zulu_impi_02
            }
        }
        weight = {
            base = 0
            modifier = {
                add = 1000

                scope:character ?= {
                    is_ruler = yes
                    is_female = no
                    OR = {
                        has_culture = cu:zulu
                        has_culture = cu:nguni
                        has_culture = cu:xhosa
                    }
                }
            }
        }
    }

    zulu_impi_headgear = {
        dna_modifiers = {
            accessory = {
                mode = add
                gene = headgear
                template = zulu_impi_headgear
                accessory = male_headgear_zulu_impi_01
            }
        }
        weight = {
            base = 0
            modifier = {
                add = 1000

                OR = {
                    scope:pop ?= {
                        OR = {
                            culture = cu:zulu
                            culture = cu:nguni
                            culture = cu:xhosa
                        }
                        OR = {
                            is_pop_type = aristocrats
                            is_pop_type = soldiers
                            is_pop_type = officers
                        }
                    }
                    scope:character ?={
                        is_ruler = no
                        OR = {
                            is_heir = yes
                            has_role = general
                        }
                        OR = {
                            has_culture = cu:zulu
                            has_culture = cu:nguni
                            has_culture = cu:xhosa
                        }                    
                    }
                }
            }
        }
    }

    persian_landowners_headgear = {
        dna_modifiers = {
            accessory = {
                mode = add
                gene = headgear
                template = arabic_landowners_hat
                range = { 0 1 } # For the randomness to work correctly
            }
        }
        weight = {
            base = 0
            modifier = {
                add = 5000

                has_dlc_feature = ep1_cosmetics

                OR = {
                    scope:pop ?= {
                        is_pop_type = aristocrats
                        culture = {
                            has_discrimination_trait = iranian_turanian_culture_group
                            has_discrimination_trait = middle_eastern_heritage
                        }
                    }
                    scope:character ?= {
                        is_interest_group_type = ig_landowners
                        age > 12
                        has_role = politician
                        NAND = {    # monarchs never wear this hat
                            is_ruler = yes
                            owner ?={
                                has_law = law_type:law_monarchy
                            }
                        }
                        culture = {
                            has_discrimination_trait = iranian_turanian_culture_group
                            has_discrimination_trait = middle_eastern_heritage
                        }
                    }
                }
            }
        }
    }

    persian_monarch_headgear = {
        dna_modifiers = {
            accessory = {
                mode = add
                gene = headgear
                template = male_headgear_arabic_royal_01
                range = { 0 1 } # For the randomness to work correctly
            }
        }
        weight = {
            base = 0
            modifier = {
                add = 5000

                has_dlc_feature = ep1_cosmetics

                scope:character ?= {
                    is_ruler = yes
                    owner ?= {
                        c:PER ?= this
                        has_law = law_type:law_monarchy
                    }
                }
            }
        }

        weight = {
            base = 0
            modifier = {
                add = 5000

                has_dlc_feature = ep1_cosmetics

                scope:pop ?= {
                    owner ?= {
                        c:PER ?= this
                    }
                    OR = {
                        is_pop_type = soldiers
                        is_pop_type = officers
                    }
                }
            }
        }

        weight = {
            base = 0
            modifier = {
                add = 5000

                has_dlc_feature = ep1_cosmetics

                c:PER ?= {
                    NOT = { has_technology_researched = bolt_action_rifles }
                }

                scope:character ?= {
                    OR = {
                        AND = {
                            exists = c:PER
                            home_country ?= c:PER
                        } 
                    }
                    is_ruler = no
                    OR = {
                        has_role = general
                        AND = {
                            has_role = politician
                            is_interest_group_type = ig_armed_forces
                        }
                    }
                }
            }
        }
    }

    persian_agitator_headgear = {
        dna_modifiers = {
            accessory = {
                mode = add
                gene = headgear
                template = male_headgear_arabic_sattar_khan
                range = { 0 1 } # For the randomness to work correctly
            }
        }
        weight = {
            base = 0
            modifier = {
                add = 10000

                has_dlc_feature = ep1_cosmetics

                scope:character ?= {
                    has_role = agitator
                    is_ruler = no
                    culture = {
                        has_discrimination_trait = iranian_turanian_culture_group
                        has_discrimination_trait = middle_eastern_heritage
                    }
                }
            }
        }
    }

    dost_mohammad_khan_headgear = {
        dna_modifiers = {
            accessory = {
                mode = add
                gene = headgear
                template = arabic_turban_mohammad_khan
                range = { 0 1 } # For the randomness to work correctly
            }
        }
        weight = {
            base = 0
            modifier = {
                add = 10000

                has_dlc_feature = ep1_cosmetics

                scope:character ?= {
                    is_ruler = yes
                    owner ?= {
                        has_law = law_type:law_monarchy
                        OR = {
                            c:AFG ?= this
                            can_form_nation = AFG
                        }
                    }
                    culture = {
                        has_discrimination_trait = iranian_turanian_culture_group
                        has_discrimination_trait = central_asian_heritage
                    }
                }
            }
        }
    }

    chokha_cherkeska_cossack_clothes = {
        dna_modifiers = {
             accessory = {
                mode = add
                gene = headgear
                template = cossack_headgear
                range = { 0 1 }
            }
        }
        weight = {
            base = 0
            modifier = {
                add = 10000
                scope:character ?= {
                    age > 12
                    culture = {
                        has_discrimination_trait = caucasus_group
                    }
                }
                OR = {
                    scope:character ?= {
                        is_ruler = yes
                        owner ?= {
                            has_law = law_type:law_monarchy
                        }
                    }
                    military_clothes_trigger = yes
                    AND = {
                        armed_forces_clothes_trigger = yes
                        politician_clothes_trigger = yes
                    }
                }
            }
            modifier = {
                add = 20000
                scope:pop ?= {
                    OR = {
                        AND = {
                            culture = {
                                has_discrimination_trait = caucasus_group
                            }
                            OR = {
                                is_pop_type = soldiers
                                is_pop_type = officers
                                is_pop_type = farmers
                            }
                        }
                        AND = {
                            culture = {
                                has_discrimination_trait = east_slavic
                            }
                            state = {
                                OR = {
                                    state_region = s:STATE_KUBAN
                                    state_region = s:STATE_STAVROPOL
                                    state_region = s:STATE_DAGESTAN
                                    state_region = s:STATE_NORTH_CAUCASUS
                                    state_region = s:STATE_ROSTOV
                                    state_region = s:STATE_KALMYKIA
                                    state_region = s:STATE_ASTRAKHAN
                                }
                            }
                            OR = {
                                is_pop_type = soldiers
                                is_pop_type = officers
                                is_pop_type = farmers
                            }
                        }
                    }
                }
            }
            modifier = {
                add = 20000
                scope:character ?= {
                    age > 12
                    culture = {
                        has_discrimination_trait = east_slavic
                    }
                    owner ?= {
                        c:RUS ?= this
                    }
                    is_ruler = no
                    is_heir = no
                    OR = {
                        has_trait = bandit
                        AND = {
                            has_role = general
                            OR = {
                                has_trait = celebrity_commander
                                has_trait = pillager
                            }
                        }
                    }
                }
            }
        }
    }

    academic_headgear = {
        dna_modifiers = {
            accessory = {
                mode = add
                gene = headgear
                template = academic_cap
                range = { 0 1 } # For the randomness to work correctly
            } 
        }
        weight = {
            base = 0
            modifier = {
                add = 1000
                academics_clothes_pop_trigger = yes
                OR = {
                    european_clothes_pop_trigger = yes
                    african_diaspora_pop_clothes_trigger = yes
                }
                slavic_clothes_pop_trigger = no
            }
        }
        weight = {
            base = 0
            modifier = {
                add = 90000
                OR = {
                    european_clothes_trigger = yes
                    african_diaspora_clothes_trigger = yes
                }
                ruler_clothes_trigger = yes
                scope:character ?= {
                    OR = {
                        AND = {
                            has_trait = erudite
                            owner ?= {
                                is_in_power_bloc = yes
                                power_bloc ?= {
                                    has_principle = principle:principle_advanced_research_1
                                }
                            }
                        }
                        AND = {
                            OR = {
                                has_trait = erudite
                                has_trait = literary
                            }
                            owner ?= {
                                is_in_power_bloc = yes
                                power_bloc ?= {
                                    has_principle = principle:principle_advanced_research_2
                                }
                            }
                        }
                        AND = {
                            OR = {
                                has_trait = erudite
                                has_trait = literary
                                has_trait = master_bureaucrat
                            }
                            owner ?= {
                                is_in_power_bloc = yes
                                power_bloc ?= {
                                    has_principle = principle:principle_advanced_research_3
                                }
                            }
                        }
                    }
                }
            }
        }
    }

    power_bloc_crown = {
        dna_modifiers = {
            accessory = {
                mode = add
                gene = headgear
                template = crown
                range = { 0 1 } # For the randomness to work correctly
            } 
        }
        weight = {
            base = 0
            modifier = {
                add = 1000
                academics_clothes_pop_trigger = yes
                OR = {
                    european_clothes_pop_trigger = yes
                    african_diaspora_pop_clothes_trigger = yes
                }
            }
        }
        weight = {
            base = 0
            modifier = {
                add = 90000

                OR = {
                    european_clothes_trigger = yes
                    african_diaspora_clothes_trigger = yes
                }
                monarchy_clothes_trigger = yes
                scope:character ?= {
                    is_ruler = yes
                    is_female = yes

                    owner ?= {
                        is_in_power_bloc = yes
                    }
                }
            }
        }
    }

    papal_headgear = {
        dna_modifiers = {
           accessory = {
               mode = add
               gene = headgear
               template = european_Catholic_headgear
               range = { 0 1 }
            }
        }

        weight = {
            base = 0
            modifier = {
                add = 2000
                
                scope:character ?= {
                    owner ?= {
                        c:PAP ?= this
                        has_law = law_type:law_theocracy
                    }
                    is_ruler = yes
                }
            }
        }
    }

    catholic_clergy_headgear = {
        dna_modifiers = {
           accessory = {
               mode = add
               gene = headgear
               template = catholic_clergy_headgear
               range = { 0 1 }
            }
        }

        weight = {
            base = 0
            modifier = {
                add = 5000

                military_clothes_trigger = no
                exists = scope:character

                scope:character ?= {
                    religion = rel:catholic
                    NOT = { has_template = FRA_francois-rene_de_chateaubriand }
                    OR = {
                        AND = {
                            politician_clothes_trigger = yes 
                            monarchy_clothes_trigger = no
                            OR = {
                                devout_clothes_trigger = yes
                                AND = {
                                    exists = scope:character
                                    exists = c:PAP
                                    scope:character = {
                                        exists = home_country
                                        home_country = c:PAP
                                        has_ideology = ideology:ideology_theocrat
                                    }
                                }
                            }
                        }
                        AND = {
                            christian_clothes_trigger = yes
                            ruler_clothes_trigger = yes
                            exists = home_country
                            home_country = {
                                has_law = law_type:law_theocracy
                            }
                        }
                    }
                }  
            }
            modifier = {
                add = 5000

                scope:pop ?= {
                    is_pop_type = clergymen
                    religion = rel:catholic
                }
            }
        }
    }
}
