﻿mask_dynamic_farmland={
	checksum="03a88d2d04f6ffaf7af1697f2f208f6b"
	allowed_provinces={ 686 687 688 689 690 691 692 693 694 695 696 697 698 699 700 701 702 703 704 705 706 707 708 709 710 711 712 713 714 715 716 717 718 719 720 721 722 723 724 725 726 727 728 729 730 731 732 733 734 735 751 752 753 754 755 756 759 760 761 762 763 764 765 766 767 768 769 770 771 772 773 774 775 776 777 778 779 780 781 783 784 786 787 788 789 790 791 792 793 794 795 796 797 798 799 800 801 802 803 804 805 806 807 808 809 810 811 812 813 814 815 816 817 818 819 820 821 822 823 824 826 827 828 829 830 831 832 833 835 837 838 839 840 841 845 849 850 851 852 853 854 855 856 857 858 859 860 861 862 863 864 865 866 867 868 869 870 871 872 873 874 875 876 877 878 879 880 882 883 884 885 886 887 888 889 890 891 892 893 894 895 896 897 898 899 902 905 906 908 909 910 911 912 913 914 915 916 917 918 919 921 922 924 925 926 927 928 929 930 931 932 933 934 935 936 937 938 939 940 943 944 946 947 948 949 950 952 955 959 960 961 962 963 999 1010 1011 1012 1014 1017 1018 1019 1043 1044 1085 1086 1087 1088 1089 1090 1091 1092 1093 1094 1095 1096 1097 1098 1099 1100 1101 1102 1103 1104 1105 1107 1108 1109 1110 1111 1112 1113 1114 1115 1116 1117 1118 1119 1120 1121 1200 1201 1202 1204 1206 1207 1723 1726 1727 1728 1730 1732 1734 1736 1738 1739 1742 14565 14566 14572 14573 14574 15125 }
}mask_dynamic_mining={
	checksum="2fe9e1c66b20fdc9137ed3bad93f9f83"
	allowed_provinces={ 2 4 6 7 13 14 15 16 17 18 19 21 27 31 32 33 34 35 36 38 39 41 42 43 45 46 47 52 55 56 60 61 62 63 64 66 67 68 73 76 82 85 89 90 97 98 126 146 158 186 187 222 230 231 242 243 244 245 246 247 249 262 264 274 282 284 285 288 289 290 293 295 296 297 300 307 308 312 329 331 333 336 338 342 345 353 359 361 366 367 369 372 373 376 379 383 392 396 400 401 405 412 413 430 453 464 466 468 469 470 471 472 473 475 485 487 490 491 493 494 495 496 515 529 532 533 534 536 537 538 545 550 552 553 561 562 566 582 583 612 613 614 620 621 624 625 627 635 658 678 736 750 784 785 786 790 792 793 795 796 797 800 801 812 814 822 823 825 828 837 838 839 843 844 850 852 854 855 856 862 863 869 870 871 872 873 874 875 877 878 879 880 881 882 883 888 889 890 891 894 923 924 927 928 962 963 964 965 966 967 968 969 972 974 975 976 1032 1033 1035 1039 1040 1041 1042 1047 1048 1050 1052 1053 1061 1062 1064 1065 1066 1068 1069 1070 1071 1072 1080 1088 1094 1095 1096 1097 1098 1100 1101 1104 1105 1106 1107 1108 1109 1110 1111 1114 1116 1117 1118 1119 1123 1127 1128 1129 1130 1131 1132 1133 1134 1135 1136 1137 1138 1139 1140 1141 1142 1143 1144 1145 1146 1148 1149 1154 1159 1160 1161 1164 1165 1167 1174 1175 1180 1181 1183 1184 1186 1187 1188 1189 1193 1194 1195 1196 1197 1198 1206 1252 1253 1259 1319 1322 1331 1393 1394 1402 1405 1406 1416 1417 1418 1419 1427 1521 1724 1725 1726 1729 1730 1731 1732 1733 1734 1735 1736 1737 1740 1741 1746 1747 1749 1750 1757 1780 1783 1785 1787 1788 1790 1791 1793 1799 1800 1801 1802 1803 1804 1805 1806 1810 1824 1825 1831 1832 1834 1835 1842 1844 1846 1847 1882 1892 1900 1918 1920 1922 1927 1944 1952 1953 1954 1955 1956 1957 1958 1959 1961 1962 1963 1981 1982 1983 2006 2007 2008 2012 2013 2015 2017 2020 2021 2024 2025 2026 2028 2050 2051 2052 2053 2055 2056 2057 2058 2059 2060 2061 2063 2064 2065 2066 2067 2068 2069 2072 2074 2075 2076 2077 2078 2079 2080 2081 2082 2084 2086 2088 2089 2090 2091 2092 2093 2094 2095 2096 2097 2098 2103 2108 2111 2112 2114 2115 2116 2117 2120 2197 2206 2208 2210 2212 2213 2215 2216 2222 2225 2242 2243 2245 2246 2249 2250 2251 2252 2253 2254 2256 2817 2828 2833 2834 2848 2868 2869 2870 2871 2872 2890 2891 2892 2893 2894 2895 2896 2897 2946 2947 2948 2949 2950 2951 2956 2959 2960 2961 2962 2963 2964 2965 2966 2967 2968 2969 2970 2971 2972 2973 2974 2975 2976 2977 2978 2979 2980 2981 2982 2983 2984 2985 2986 2987 2988 2989 2990 2991 2992 2993 2994 2995 2996 2997 2998 2999 3000 3001 3002 3003 3004 3005 3006 3007 3008 3009 3010 3012 3013 3014 3015 3016 3017 3018 3019 3020 3021 3022 3027 3028 3029 3030 3031 3032 3033 3034 3035 3040 3041 3042 3043 3044 3045 3046 3047 3048 3149 3151 3152 3153 3154 3162 3163 3165 3167 3168 3169 3170 3171 3172 3173 3174 3175 3176 3177 3178 3179 3180 3192 3475 3476 3484 3485 3486 3493 3494 3495 3503 3504 3511 3512 3513 3520 3521 3599 3607 3608 3609 3616 3643 3644 3645 3646 3647 3668 3669 3670 3671 3673 3677 3678 3680 3681 3686 3692 3695 3697 3701 3702 3703 3705 3709 3712 3714 3715 3721 3722 3723 3731 3817 3818 3819 3820 3821 3825 3826 3827 3828 3829 3833 3834 3835 3836 3841 3842 3843 3844 3849 3850 3851 3852 3853 3857 3858 3859 3860 3861 3862 3863 3865 3866 3867 3868 3869 3870 3871 3875 3876 3877 3878 3879 3979 3985 4012 4013 4014 4015 4016 4017 4018 4019 4020 4022 4024 4025 4032 4034 4036 4037 4038 4039 4040 4041 4042 4043 4049 4051 4055 4056 4063 4064 4068 4069 4138 4363 4365 4384 4385 4388 4389 4390 4432 4435 4437 4440 4575 4576 4577 4578 4609 4610 4611 4612 4614 4615 4617 4620 4634 4787 4788 4789 4790 4792 4793 4794 4904 4907 4910 4911 4912 4919 4925 4926 4934 4937 4943 4944 4950 4954 4955 4956 4960 4961 4962 4964 4966 4968 4969 4970 4971 4976 4978 4979 4980 5004 5007 5013 5019 5024 5029 5032 5033 5037 5039 5045 5108 5112 5116 5117 5122 5125 5127 5128 5179 5180 5182 5185 5205 5214 5254 5259 5267 5270 5273 5277 5280 5282 5331 5338 5363 5377 5384 5389 5395 5397 5418 5420 5424 5425 5437 5440 5445 5449 5491 5495 5500 5547 5548 5552 5553 5556 5561 5563 5564 5572 5573 5583 5585 5590 5593 5596 5597 5598 5599 5600 5616 5619 5620 5622 5624 5629 5632 5641 5647 5649 5650 5652 5656 5657 5658 5659 5665 5694 5705 5706 5709 5710 5713 5714 5754 5755 5756 5758 5760 5761 5765 5849 5850 5861 5863 5898 5901 5909 5913 5927 5928 5929 5933 5934 5935 5998 6001 6004 6006 6008 6009 6015 6016 6031 6032 6033 6048 6054 6122 6123 6127 6133 6134 6144 6146 6149 6285 6287 6289 6311 6312 6313 6323 6324 6325 6327 6328 6329 6334 6335 6336 6337 6338 6339 6340 6341 6342 6343 6344 6349 6352 6354 6356 6357 6358 6360 6363 6366 6396 6399 6402 6415 6416 6417 6418 6420 6421 6422 6423 6425 6426 6428 6429 6449 6451 6452 6471 6472 6490 6491 6492 6504 6506 6507 6508 6509 6520 6522 6525 6529 6531 6532 6534 6535 6537 6567 6572 6574 6577 6579 6590 6591 6592 6593 6594 6595 6596 6601 6602 6603 6604 6605 6606 6607 6608 6690 6693 6698 6699 6704 6705 6738 6858 6859 6860 6861 6862 6863 6864 6868 6873 6914 6915 6916 6917 6918 6941 6944 6954 6955 7004 7005 7020 7110 7116 7123 7125 7192 7193 7195 7200 7201 7204 7265 7266 7295 7298 7301 7305 7311 7333 7346 7406 7410 7411 7419 7420 7421 7432 7714 7720 7726 7730 7731 7737 7746 7845 7848 7857 7910 7925 7950 7953 7955 7957 7958 7982 8538 8571 8572 8573 8574 8575 8576 8577 8602 8607 8644 8650 8652 8653 8656 8658 8660 8663 8666 8723 8729 8733 8734 8735 8736 8738 8739 8740 8764 8766 8769 8770 8773 8775 8777 8779 8782 8783 8824 8826 8843 8845 8848 8849 8850 8852 8853 8854 8855 8856 8867 8942 8945 8946 9084 9086 9090 9092 9093 9094 9095 9098 9099 9104 9105 9130 9165 9166 9167 9170 9202 9203 9204 9205 9209 9210 9211 9212 9222 9223 9224 9225 9226 9228 9230 9231 9233 9234 9235 9236 9237 9239 9240 9241 9249 9250 9251 9253 9254 9256 9258 9260 9261 9263 9264 9265 9278 9279 9284 9285 9322 9323 9328 9329 9331 9703 9704 9709 10062 10063 10064 10072 10074 10080 10081 10083 10085 10088 10105 10106 10108 10109 10110 10147 10154 10203 10206 10208 10211 10239 10240 10251 10253 10264 10265 10269 10270 10306 10308 10314 10349 10350 10352 10354 10356 10357 10358 10359 10360 10362 10363 10367 10370 10372 10373 10374 10378 10381 10408 10414 10416 10427 10428 10430 10431 10433 10436 10437 10463 10466 10529 10533 10584 10589 10590 10596 10597 10604 10664 10665 10666 10667 10734 10736 10787 10845 10846 10850 10851 10852 10854 10857 10859 10923 10927 10928 10967 11037 11146 11151 11154 11187 11189 11190 11193 11592 11598 11599 11600 11601 11604 11607 11608 11643 11647 11648 11649 11656 11657 11666 11683 11684 11688 11690 11691 11692 11694 11695 11699 11708 11727 11755 11760 11784 11909 11921 11922 11923 11926 11943 11948 11950 11952 11967 11969 11972 11973 11986 11989 12005 12020 12021 12022 12023 12099 12100 12101 12102 12104 12108 12109 12113 12122 12123 12124 12126 12128 12130 12134 12143 12146 12149 12158 12160 12169 12170 12171 12172 12173 12176 12177 12179 12180 12181 12183 12184 12185 12186 12196 12197 12209 12231 12244 12245 12246 12247 12248 12249 12250 12253 12269 12422 12423 12425 12451 12455 12456 12460 12461 12473 12474 12482 12490 12491 12495 12508 12509 12511 12513 12514 12517 12518 12521 12547 12548 12550 12555 12557 12559 12560 12576 12577 12580 12583 12592 12603 12606 12607 12612 12616 12629 12678 12721 12730 12734 12735 12739 12743 12773 12775 12784 12788 12791 12792 12800 12807 12808 12812 12815 12820 12823 12827 12828 12831 12836 12842 13008 13012 13018 13027 13037 13038 13053 13208 13211 13215 13216 13219 13220 13224 13225 13226 13437 13438 13443 13444 13445 13446 13530 13534 13535 13536 13538 13540 13579 13581 13715 13717 13721 13722 13744 13761 13763 13764 13769 13772 14240 14243 14244 14245 14251 14255 14257 14258 14291 14292 14294 14295 14301 14305 14306 14308 14310 14324 14565 14566 14567 14568 14569 14570 14571 14572 14575 14578 14585 14593 14594 14596 14598 14599 14600 14601 14602 14603 14608 14609 14610 14616 14618 14619 14620 14621 14623 14624 14626 14627 14640 14642 14647 14653 14654 14657 14658 14659 14661 14664 14665 14666 14670 14671 14672 14673 14674 14675 14676 14678 14679 14684 14693 14702 14703 14704 14705 14706 14707 14712 14713 14714 14715 14716 14717 14719 14721 14753 14756 14757 14759 14761 14767 14783 14785 14786 14802 14812 14817 14823 14834 14860 14882 14902 14915 14931 14937 14939 14948 14951 14953 14961 14965 14966 14969 14975 14977 14978 14979 14980 14984 14988 14993 14999 15001 15011 15015 15023 15027 15039 15041 15042 15043 15047 15049 15053 15057 15061 15073 15103 15107 15109 15119 15129 15135 }
}mask_dynamic_forestry={
	checksum="139af373ac2a2918ed8e4c3667d1b843"
	allowed_provinces={ 2 3 4 5 6 7 8 9 10 11 12 13 14 15 16 17 18 19 20 21 22 23 25 27 28 29 30 32 33 34 35 36 37 38 39 40 41 42 43 44 45 46 47 48 49 51 52 53 54 55 56 57 58 59 62 63 64 65 67 68 69 70 71 72 73 74 75 76 77 78 79 80 81 82 84 85 86 87 88 89 90 97 98 100 115 117 118 124 126 127 128 129 131 144 145 146 147 148 149 150 151 152 153 154 158 159 160 165 177 182 183 184 185 186 187 188 196 217 222 227 229 230 231 232 234 235 236 237 238 239 240 241 242 243 244 245 246 247 248 249 250 253 254 255 256 257 258 259 260 261 262 263 264 265 266 267 268 269 270 271 272 274 275 276 277 278 280 281 282 286 287 290 291 292 293 294 295 296 297 298 299 300 301 302 303 304 305 307 308 309 310 311 312 313 314 315 316 317 318 319 320 321 322 324 327 328 329 330 331 333 334 336 338 361 384 385 389 390 392 396 399 400 401 405 408 409 412 415 453 502 503 550 564 566 567 568 569 570 571 576 577 578 579 580 581 582 583 625 630 635 640 641 644 651 655 668 670 678 679 682 685 688 689 690 691 692 693 696 717 736 737 738 739 740 741 742 743 744 745 746 747 748 749 750 777 778 779 782 783 784 785 786 787 788 789 790 791 792 793 795 796 797 799 800 801 803 804 805 806 807 808 811 812 814 815 816 817 818 820 822 823 824 825 826 827 828 831 832 834 837 838 839 840 841 842 843 844 846 847 849 850 851 852 853 854 855 856 857 858 859 860 861 862 863 868 869 870 871 872 873 874 876 877 878 879 880 881 882 883 888 889 890 891 892 893 894 895 897 899 904 909 910 911 912 915 916 917 918 919 921 924 925 926 927 928 929 930 931 932 934 935 936 937 938 939 940 941 942 943 944 946 947 948 949 950 951 952 953 954 955 956 957 958 959 960 961 962 963 964 965 966 967 968 969 970 971 972 973 974 975 976 977 992 1002 1003 1007 1008 1009 1031 1032 1033 1034 1035 1036 1037 1038 1039 1040 1041 1042 1043 1044 1045 1046 1047 1048 1049 1050 1051 1052 1053 1054 1055 1056 1057 1058 1059 1060 1061 1062 1063 1064 1065 1067 1068 1069 1070 1071 1072 1073 1074 1075 1076 1077 1078 1079 1080 1081 1082 1083 1084 1085 1086 1087 1088 1090 1091 1092 1093 1094 1095 1096 1097 1098 1099 1100 1101 1102 1103 1104 1105 1106 1107 1108 1109 1110 1111 1112 1113 1115 1116 1117 1118 1119 1120 1123 1124 1125 1126 1127 1128 1129 1130 1131 1132 1133 1134 1135 1136 1138 1139 1141 1142 1143 1145 1148 1149 1150 1151 1152 1153 1154 1155 1156 1157 1158 1159 1160 1161 1162 1163 1164 1165 1166 1167 1168 1169 1170 1171 1174 1175 1176 1181 1183 1184 1185 1186 1187 1188 1189 1190 1191 1192 1193 1194 1195 1196 1197 1198 1199 1200 1201 1202 1203 1204 1206 1207 1232 1234 1237 1250 1251 1252 1253 1254 1255 1256 1258 1259 1301 1303 1305 1313 1314 1317 1319 1320 1322 1324 1325 1326 1327 1328 1329 1330 1331 1332 1333 1334 1335 1336 1352 1353 1354 1355 1356 1357 1358 1359 1360 1361 1362 1363 1387 1388 1389 1390 1391 1392 1393 1394 1395 1396 1397 1398 1399 1400 1401 1402 1403 1404 1405 1406 1407 1408 1409 1410 1411 1412 1413 1414 1415 1416 1417 1418 1419 1420 1421 1422 1423 1424 1425 1427 1428 1429 1432 1433 1434 1435 1436 1438 1440 1441 1443 1447 1449 1450 1451 1455 1456 1459 1460 1461 1462 1464 1465 1466 1467 1468 1470 1471 1472 1473 1474 1475 1476 1477 1478 1479 1480 1481 1482 1483 1484 1485 1487 1488 1489 1490 1491 1493 1494 1495 1497 1498 1499 1500 1501 1502 1503 1504 1505 1506 1507 1508 1509 1510 1511 1512 1513 1514 1515 1516 1517 1518 1519 1520 1521 1522 1523 1524 1525 1526 1527 1529 1530 1531 1532 1533 1534 1535 1536 1537 1538 1539 1540 1542 1543 1547 1723 1724 1725 1726 1727 1728 1729 1730 1731 1732 1733 1734 1735 1736 1737 1738 1739 1741 1742 1743 1744 1746 1747 1748 1749 1750 1751 1753 1754 1756 1757 1759 1761 1762 1770 1774 1779 1780 1781 1782 1783 1785 1787 1788 1789 1790 1791 1792 1793 1794 1795 1796 1797 1798 1802 1803 1804 1805 1806 1807 1808 1809 1810 1811 1813 1814 1815 1816 1817 1818 1819 1820 1821 1822 1823 1824 1825 1826 1827 1828 1829 1830 1831 1832 1833 1834 1835 1836 1837 1838 1839 1840 1841 1842 1843 1844 1845 1847 1851 1852 1853 1854 1857 1858 1859 1860 1861 1862 1863 1864 1865 1866 1867 1868 1869 1870 1871 1872 1875 1876 1877 1878 1879 1880 1881 1882 1883 1884 1885 1886 1887 1888 1889 1890 1891 1893 1894 1895 1896 1897 1898 1899 1901 1902 1903 1904 1905 1910 1911 1912 1913 1917 1921 1923 1925 1926 1927 1928 1929 1930 1931 1932 1933 1934 1935 1937 1939 1941 1942 1943 1944 1946 1947 1948 1949 1950 1951 1952 1953 1954 1955 1956 1957 1958 1959 1960 1961 1962 1963 1964 1965 1966 1976 1978 1981 1982 1983 1984 1985 1986 1987 1988 1989 1990 1991 1992 1993 1996 2000 2004 2006 2007 2012 2013 2014 2015 2016 2017 2018 2019 2020 2021 2022 2023 2024 2025 2026 2027 2028 2029 2030 2031 2032 2033 2034 2035 2036 2037 2038 2042 2047 2048 2049 2050 2051 2053 2054 2055 2056 2057 2059 2060 2062 2064 2065 2066 2067 2068 2069 2070 2071 2072 2073 2074 2075 2076 2077 2078 2079 2080 2081 2082 2083 2084 2086 2087 2089 2090 2091 2093 2094 2095 2096 2097 2098 2099 2100 2101 2102 2103 2104 2105 2106 2107 2108 2109 2110 2111 2112 2114 2115 2117 2118 2120 2121 2123 2124 2125 2126 2159 2163 2164 2169 2170 2171 2172 2173 2174 2175 2176 2177 2178 2179 2180 2181 2182 2183 2184 2186 2187 2188 2189 2190 2191 2192 2193 2194 2195 2197 2199 2200 2203 2204 2205 2206 2207 2208 2209 2210 2211 2212 2213 2214 2215 2216 2217 2218 2219 2220 2221 2222 2224 2226 2227 2228 2229 2230 2233 2234 2237 2239 2240 2241 2242 2243 2245 2246 2247 2248 2249 2250 2252 2253 2254 2255 2256 2257 2258 2259 2261 2262 2263 2264 2270 2271 2276 2277 2282 2283 2294 2295 2298 2299 2300 2301 2304 2305 2306 2354 2355 2356 2357 2358 2360 2361 2362 2363 2364 2365 2371 2457 2462 2469 2514 2515 2516 2518 2519 2521 2522 2523 2524 2525 2526 2527 2528 2529 2530 2531 2532 2533 2534 2535 2536 2537 2538 2539 2540 2541 2542 2543 2544 2545 2547 2548 2549 2552 2553 2554 2555 2556 2557 2558 2559 2560 2561 2562 2563 2565 2566 2567 2568 2569 2570 2571 2572 2573 2574 2575 2576 2577 2578 2579 2580 2581 2582 2583 2584 2585 2586 2587 2588 2591 2592 2593 2594 2595 2600 2601 2602 2633 2634 2640 2641 2642 2643 2644 2645 2648 2649 2650 2651 2652 2653 2655 2656 2657 2658 2659 2660 2661 2664 2665 2666 2667 2668 2669 2670 2671 2672 2673 2674 2675 2676 2677 2755 2756 2757 2758 2759 2760 2761 2762 2763 2764 2765 2766 2767 2768 2769 2770 2771 2772 2773 2774 2775 2776 2777 2778 2779 2780 2781 2782 2783 2784 2785 2786 2787 2788 2789 2790 2791 2792 2793 2794 2795 2796 2797 2798 2801 2802 2803 2804 2805 2806 2807 2808 2809 2810 2811 2812 2813 2814 2815 2817 2818 2819 2820 2821 2823 2824 2825 2826 2827 2828 2829 2830 2831 2832 2833 2834 2835 2836 2840 2841 2842 2843 2844 2845 2846 2847 2848 2849 2850 2851 2852 2853 2854 2855 2856 2857 2858 2859 2860 2861 2862 2863 2864 2865 2866 2867 2868 2869 2870 2871 2872 2873 2874 2875 2876 2877 2878 2879 2880 2881 2882 2883 2884 2885 2886 2887 2888 2889 2891 2892 2893 2894 2895 2896 2897 2898 2899 2900 2901 2902 2903 2904 2905 2906 2907 2908 2909 2910 2911 2912 2913 2914 2916 2933 2935 2937 2938 2941 2942 2946 2947 2948 2949 2950 2951 2952 2953 2954 2955 2956 2957 2958 2959 2960 2998 2999 3000 3001 3010 3011 3012 3013 3014 3023 3024 3025 3026 3027 3036 3037 3038 3039 3040 3049 3052 3053 3055 3056 3060 3074 3079 3080 3081 3085 3086 3087 3088 3092 3093 3094 3095 3096 3097 3099 3100 3101 3102 3103 3104 3105 3106 3109 3110 3111 3112 3113 3114 3115 3117 3118 3119 3120 3121 3122 3123 3124 3125 3126 3127 3128 3129 3130 3134 3145 3146 3147 3148 3149 3150 3151 3152 3153 3154 3155 3156 3157 3159 3160 3161 3162 3163 3164 3165 3166 3167 3168 3169 3170 3172 3174 3175 3178 3180 3181 3182 3183 3184 3185 3186 3187 3188 3189 3190 3191 3192 3193 3194 3195 3196 3197 3198 3199 3200 3201 3202 3203 3204 3205 3206 3207 3208 3209 3210 3211 3212 3213 3215 3217 3218 3219 3220 3222 3223 3224 3225 3229 3232 3234 3235 3236 3237 3238 3240 3330 3331 3336 3337 3371 3372 3373 3374 3378 3379 3380 3381 3387 3388 3389 3390 3397 3398 3399 3407 3428 3437 3461 3462 3470 3471 3478 3479 3480 3487 3488 3489 3496 3501 3502 3505 3510 3511 3513 3514 3522 3523 3536 3544 3545 3546 3553 3554 3555 3594 3595 3596 3599 3600 3603 3607 3608 3609 3610 3611 3612 3614 3615 3616 3617 3619 3626 3627 3628 3629 3633 3638 3643 3645 3646 3654 3655 3656 3662 3667 3668 3669 3670 3671 3673 3675 3678 3680 3681 3686 3689 3691 3692 3693 3694 3695 3696 3698 3702 3703 3705 3707 3709 3712 3713 3714 3715 3720 3721 3722 3723 3724 3726 3727 3728 3729 3730 3731 3732 3733 3734 3735 3799 3800 3801 3805 3806 3807 3809 3810 3815 3816 3817 3848 3856 3864 3979 3980 3986 3987 3988 3993 3996 3997 4000 4001 4002 4003 4004 4007 4009 4017 4020 4021 4022 4024 4025 4026 4027 4028 4036 4044 4046 4047 4048 4049 4050 4052 4054 4055 4056 4058 4061 4067 4069 4073 4076 4077 4078 4079 4080 4083 4084 4085 4089 4090 4093 4094 4109 4118 4120 4134 4135 4136 4138 4142 4152 4153 4160 4161 4162 4167 4168 4169 4170 4175 4176 4177 4178 4183 4184 4185 4186 4192 4193 4194 4198 4199 4202 4203 4204 4208 4209 4210 4211 4216 4217 4218 4219 4224 4225 4226 4231 4232 4233 4238 4239 4240 4254 4255 4260 4261 4263 4264 4265 4266 4267 4269 4270 4271 4272 4275 4276 4277 4278 4281 4282 4283 4284 4336 4337 4339 4340 4341 4342 4343 4348 4350 4351 4352 4353 4355 4356 4357 4358 4359 4360 4363 4364 4365 4366 4367 4368 4369 4370 4371 4372 4374 4375 4376 4377 4379 4381 4383 4384 4385 4386 4387 4389 4390 4391 4392 4393 4394 4395 4396 4397 4398 4399 4400 4401 4402 4403 4404 4405 4406 4407 4408 4410 4411 4412 4413 4414 4418 4422 4423 4424 4425 4426 4427 4428 4429 4430 4431 4432 4433 4434 4435 4436 4437 4438 4439 4440 4441 4442 4444 4445 4446 4447 4448 4449 4450 4451 4452 4453 4454 4455 4456 4457 4458 4459 4460 4462 4463 4464 4480 4481 4482 4491 4492 4493 4494 4495 4496 4497 4498 4499 4500 4501 4502 4503 4504 4505 4506 4507 4509 4510 4511 4515 4516 4523 4524 4525 4526 4527 4530 4531 4532 4533 4536 4537 4538 4539 4566 4567 4568 4569 4570 4571 4572 4573 4574 4578 4579 4580 4581 4582 4583 4584 4585 4587 4589 4590 4596 4597 4598 4599 4600 4601 4602 4603 4604 4605 4606 4607 4608 4613 4616 4617 4618 4619 4620 4621 4622 4623 4624 4626 4627 4629 4630 4631 4632 4633 4634 4635 4636 4637 4638 4639 4640 4641 4642 4643 4644 4645 4646 4647 4648 4649 4650 4651 4652 4653 4654 4655 4656 4657 4658 4659 4660 4661 4662 4663 4664 4665 4666 4667 4668 4669 4670 4671 4672 4673 4674 4675 4677 4678 4679 4680 4682 4683 4684 4685 4686 4687 4688 4689 4690 4691 4692 4693 4694 4695 4696 4697 4698 4699 4700 4701 4702 4703 4704 4705 4706 4707 4708 4709 4710 4711 4712 4713 4714 4715 4717 4720 4721 4722 4723 4724 4725 4726 4727 4728 4729 4731 4732 4733 4734 4735 4736 4737 4738 4739 4740 4741 4742 4743 4744 4745 4746 4747 4748 4749 4750 4751 4752 4753 4754 4755 4756 4757 4758 4759 4760 4761 4762 4763 4764 4765 4766 4767 4768 4769 4770 4771 4772 4773 4774 4775 4776 4777 4778 4779 4780 4781 4782 4783 4784 4785 4786 4787 4788 4789 4790 4791 4792 4793 4794 4795 4796 4797 4798 4799 4800 4801 4802 4803 4804 4805 4806 4807 4808 4809 4810 4811 4812 4813 4814 4815 4816 4817 4818 4819 4820 4821 4822 4823 4824 4825 4826 4827 4828 4829 4830 4831 4832 4833 4834 4835 4836 4837 4838 4839 4840 4841 4842 4843 4844 4845 4846 4847 4848 4849 4850 4851 4852 4853 4854 4855 4856 4857 4858 4859 4860 4861 4862 4863 4864 4865 4866 4867 4868 4869 4870 4871 4872 4873 4874 4875 4876 4877 4878 4879 4880 4881 4882 4883 4884 4885 4886 4887 4888 4889 4890 4891 4892 4893 4894 4895 4896 4897 4898 4899 4900 4901 4902 4903 4904 4905 4906 4907 4908 4909 4910 4911 4912 4914 4916 4917 4918 4920 4921 4922 4923 4924 4926 4927 4928 4929 4930 4931 4934 4935 4936 4937 4938 4939 4940 4941 4942 4943 4944 4945 4948 4949 4950 4951 4952 4953 4956 4957 4958 4959 4960 4962 4963 4964 4965 4967 4968 4971 4972 4974 4975 4976 4977 4979 4980 4981 4982 4983 4984 4985 4986 4987 4988 4989 4990 4991 4992 4993 4994 4995 4996 4997 4998 4999 5000 5001 5002 5003 5004 5005 5006 5007 5008 5009 5010 5011 5012 5013 5014 5015 5016 5017 5018 5019 5020 5021 5022 5023 5024 5025 5028 5029 5030 5032 5033 5034 5037 5038 5039 5041 5042 5043 5044 5045 5046 5049 5050 5051 5054 5055 5056 5057 5059 5060 5064 5066 5067 5068 5069 5070 5071 5072 5073 5076 5077 5078 5079 5084 5087 5089 5090 5091 5092 5093 5094 5096 5097 5098 5101 5108 5111 5112 5113 5115 5116 5118 5123 5125 5126 5127 5129 5130 5132 5133 5135 5136 5137 5139 5140 5141 5142 5143 5144 5146 5147 5148 5151 5152 5153 5154 5156 5158 5159 5161 5166 5167 5168 5169 5170 5171 5172 5173 5175 5177 5179 5180 5181 5182 5183 5184 5186 5188 5189 5190 5191 5192 5194 5195 5196 5197 5198 5199 5200 5201 5202 5203 5204 5205 5206 5207 5208 5209 5210 5211 5212 5213 5214 5215 5216 5217 5218 5219 5220 5221 5222 5223 5225 5226 5228 5229 5230 5231 5232 5233 5234 5235 5236 5237 5238 5239 5240 5241 5242 5243 5245 5246 5248 5249 5250 5251 5252 5253 5254 5256 5257 5258 5259 5260 5261 5262 5263 5264 5265 5266 5268 5269 5270 5271 5272 5273 5274 5275 5276 5277 5278 5279 5280 5281 5282 5283 5284 5285 5286 5287 5288 5289 5290 5291 5292 5293 5294 5295 5296 5297 5298 5300 5301 5303 5304 5305 5306 5307 5308 5309 5310 5311 5312 5313 5314 5315 5316 5317 5318 5319 5320 5321 5322 5323 5324 5325 5326 5327 5328 5329 5330 5331 5332 5333 5334 5335 5336 5337 5338 5339 5340 5341 5342 5343 5344 5345 5346 5347 5348 5349 5350 5351 5352 5353 5354 5355 5356 5357 5358 5359 5360 5361 5362 5363 5364 5365 5366 5367 5368 5369 5370 5371 5372 5373 5374 5375 5376 5377 5378 5379 5380 5381 5382 5383 5385 5386 5387 5388 5389 5390 5391 5392 5393 5394 5395 5396 5398 5399 5400 5401 5402 5403 5404 5405 5406 5407 5408 5409 5410 5411 5412 5413 5414 5415 5416 5417 5419 5420 5421 5422 5423 5424 5425 5426 5427 5428 5429 5430 5431 5432 5433 5434 5435 5436 5440 5441 5442 5443 5444 5445 5446 5447 5449 5450 5451 5452 5453 5454 5455 5456 5457 5458 5459 5460 5461 5462 5463 5464 5465 5466 5467 5468 5469 5470 5471 5472 5473 5474 5475 5476 5477 5478 5479 5480 5481 5482 5483 5484 5485 5486 5487 5488 5489 5490 5491 5492 5493 5494 5495 5496 5497 5500 5501 5502 5503 5505 5506 5507 5508 5509 5510 5511 5512 5513 5514 5515 5516 5517 5518 5519 5520 5521 5522 5523 5524 5525 5526 5527 5528 5529 5530 5531 5532 5533 5534 5535 5536 5537 5538 5539 5540 5541 5542 5543 5544 5545 5546 5547 5548 5549 5550 5551 5552 5553 5554 5555 5556 5557 5558 5559 5560 5561 5562 5563 5564 5565 5566 5567 5568 5569 5570 5571 5572 5573 5574 5575 5576 5577 5578 5579 5580 5581 5582 5583 5584 5585 5586 5587 5588 5589 5590 5591 5592 5593 5594 5595 5596 5597 5598 5599 5600 5601 5602 5603 5604 5605 5606 5607 5608 5609 5610 5611 5612 5613 5614 5615 5616 5617 5618 5619 5620 5621 5622 5623 5624 5625 5626 5627 5628 5629 5630 5631 5632 5633 5634 5635 5636 5637 5640 5641 5642 5643 5644 5645 5646 5647 5648 5649 5651 5652 5653 5654 5655 5656 5657 5658 5659 5660 5661 5662 5663 5664 5665 5666 5667 5668 5669 5670 5671 5672 5673 5674 5675 5676 5677 5678 5679 5680 5681 5682 5683 5684 5685 5686 5687 5688 5689 5690 5691 5692 5693 5694 5695 5696 5697 5698 5699 5700 5701 5702 5703 5704 5705 5706 5707 5708 5709 5710 5711 5712 5713 5714 5715 5716 5717 5718 5719 5720 5721 5722 5723 5724 5725 5726 5727 5728 5729 5730 5731 5732 5733 5734 5735 5736 5737 5738 5739 5740 5742 5743 5744 5745 5746 5747 5748 5749 5750 5751 5752 5753 5754 5755 5756 5757 5758 5759 5760 5761 5762 5763 5764 5765 5766 5767 5768 5769 5770 5771 5772 5773 5774 5775 5776 5777 5778 5779 5780 5781 5782 5783 5784 5785 5786 5787 5788 5789 5790 5791 5792 5793 5794 5795 5796 5797 5798 5799 5800 5801 5802 5803 5804 5805 5806 5807 5808 5809 5810 5811 5812 5813 5814 5815 5816 5817 5818 5819 5820 5821 5822 5823 5824 5825 5826 5827 5828 5829 5830 5838 5842 5857 5858 5859 5885 5888 5889 5896 5898 5904 5924 5938 5939 5940 5941 5942 5943 5944 5946 5947 5949 5950 5951 5952 5953 5954 5955 5957 5958 5959 5960 5961 5962 5972 5975 5977 5981 5982 5984 5987 5988 5989 5990 5991 5992 5993 5994 5995 5996 5997 5998 5999 6000 6001 6002 6003 6004 6005 6006 6007 6009 6010 6013 6014 6015 6017 6018 6019 6020 6025 6027 6028 6030 6033 6034 6036 6037 6038 6039 6040 6041 6042 6043 6044 6045 6046 6047 6048 6049 6050 6051 6052 6053 6054 6055 6057 6058 6060 6061 6063 6064 6065 6066 6067 6069 6070 6074 6078 6086 6088 6094 6097 6099 6104 6108 6123 6124 6125 6127 6128 6129 6130 6131 6133 6134 6135 6136 6137 6139 6140 6141 6142 6144 6146 6147 6148 6149 6150 6151 6152 6153 6157 6161 6162 6163 6164 6165 6166 6167 6168 6169 6170 6171 6172 6173 6174 6175 6177 6178 6179 6180 6181 6183 6184 6187 6189 6193 6194 6195 6196 6197 6198 6199 6200 6201 6202 6207 6208 6209 6210 6211 6212 6213 6214 6215 6230 6231 6232 6233 6234 6235 6236 6237 6238 6239 6240 6241 6254 6255 6256 6257 6258 6259 6260 6261 6262 6264 6265 6266 6267 6268 6269 6270 6271 6272 6273 6274 6275 6277 6278 6280 6283 6285 6286 6287 6288 6289 6290 6291 6292 6293 6294 6295 6296 6297 6298 6299 6300 6301 6302 6303 6304 6305 6306 6307 6308 6309 6310 6311 6312 6313 6314 6315 6316 6318 6319 6320 6321 6322 6323 6324 6325 6326 6327 6328 6329 6330 6331 6332 6333 6334 6335 6336 6337 6338 6339 6340 6341 6342 6343 6344 6345 6346 6347 6348 6349 6350 6351 6352 6353 6354 6355 6356 6357 6358 6359 6360 6361 6362 6363 6364 6365 6366 6367 6368 6369 6370 6371 6372 6373 6374 6375 6376 6377 6378 6379 6380 6381 6382 6383 6384 6385 6386 6387 6388 6389 6390 6391 6392 6393 6395 6396 6397 6398 6399 6400 6401 6402 6403 6404 6405 6406 6407 6408 6409 6411 6413 6414 6415 6416 6417 6419 6420 6421 6422 6423 6424 6425 6426 6427 6428 6429 6430 6431 6432 6433 6434 6435 6436 6437 6438 6439 6440 6441 6442 6443 6444 6445 6446 6447 6448 6449 6450 6451 6452 6453 6454 6455 6456 6457 6458 6459 6460 6461 6462 6463 6464 6465 6466 6467 6468 6469 6470 6471 6472 6473 6474 6475 6476 6477 6478 6479 6480 6481 6482 6483 6484 6485 6486 6487 6488 6489 6490 6491 6492 6493 6494 6495 6496 6497 6498 6499 6500 6501 6502 6503 6504 6505 6506 6507 6508 6509 6511 6512 6513 6514 6515 6516 6517 6518 6519 6520 6521 6522 6523 6525 6526 6527 6528 6529 6530 6531 6532 6533 6534 6535 6536 6537 6538 6567 6572 6574 6575 6577 6579 6580 6582 6587 6590 6591 6592 6593 6594 6595 6596 6597 6598 6599 6600 6601 6602 6603 6604 6605 6606 6607 6608 6635 6636 6637 6638 6639 6640 6641 6643 6644 6645 6646 6647 6651 6653 6654 6660 6661 6662 6663 6664 6665 6676 6677 6678 6679 6680 6681 6682 6683 6684 6685 6686 6687 6688 6689 6690 6691 6697 6701 6703 6708 6709 6710 6712 6713 6715 6716 6717 6718 6719 6720 6721 6722 6723 6724 6725 6726 6727 6728 6730 6731 6734 6749 6752 6755 6756 6757 6759 6761 6762 6763 6764 6766 6767 6768 6769 6770 6771 6772 6773 6774 6775 6776 6777 6779 6780 6781 6782 6783 6784 6785 6786 6787 6788 6790 6791 6793 6794 6795 6796 6797 6798 6799 6800 6801 6802 6803 6804 6805 6806 6807 6808 6809 6810 6811 6812 6814 6815 6816 6817 6818 6819 6820 6821 6822 6823 6824 6825 6826 6827 6828 6829 6830 6831 6832 6833 6835 6836 6837 6838 6839 6840 6841 6842 6843 6844 6845 6846 6847 6848 6849 6850 6851 6853 6854 6855 6859 6860 6861 6862 6863 6864 6865 6866 6868 6869 6871 6872 6873 6874 6875 6877 6878 6879 6880 6881 6882 6887 6888 6889 6890 6893 6932 6933 6934 6935 6936 6937 6938 6940 6941 6944 6951 6965 6971 7009 7014 7019 7021 7024 7025 7026 7027 7032 7034 7036 7038 7040 7041 7046 7047 7049 7050 7052 7054 7055 7057 7058 7060 7061 7062 7063 7064 7065 7066 7068 7069 7070 7071 7073 7074 7075 7076 7077 7078 7079 7080 7081 7082 7083 7084 7085 7086 7087 7088 7089 7090 7091 7092 7093 7094 7095 7096 7098 7099 7100 7101 7102 7103 7104 7105 7106 7107 7108 7109 7110 7111 7112 7113 7114 7115 7116 7117 7118 7119 7120 7121 7122 7123 7124 7125 7126 7127 7128 7129 7130 7131 7132 7133 7134 7135 7136 7137 7138 7139 7143 7145 7146 7147 7148 7149 7150 7151 7152 7153 7154 7155 7156 7158 7159 7160 7161 7162 7163 7164 7165 7166 7167 7168 7169 7170 7171 7172 7173 7174 7175 7176 7177 7178 7179 7180 7181 7182 7183 7185 7186 7187 7188 7189 7190 7191 7192 7193 7194 7195 7196 7197 7198 7199 7200 7201 7202 7203 7204 7205 7206 7207 7208 7209 7210 7211 7212 7213 7214 7215 7220 7228 7232 7239 7240 7242 7247 7248 7250 7257 7260 7261 7292 7366 7367 7368 7369 7370 7371 7372 7373 7374 7375 7376 7377 7378 7379 7380 7381 7382 7383 7384 7385 7386 7387 7388 7389 7390 7391 7392 7393 7394 7395 7396 7397 7398 7399 7400 7401 7402 7403 7404 7405 7406 7407 7408 7409 7410 7411 7412 7413 7414 7415 7416 7417 7418 7419 7420 7421 7422 7423 7424 7425 7426 7427 7428 7429 7430 7431 7432 7433 7434 7435 7436 7437 7438 7439 7440 7441 7442 7443 7444 7445 7446 7447 7448 7449 7450 7451 7452 7453 7454 7455 7456 7457 7458 7459 7460 7461 7462 7463 7464 7465 7466 7467 7468 7469 7470 7471 7472 7473 7474 7475 7476 7477 7478 7479 7480 7481 7482 7483 7484 7485 7486 7487 7488 7489 7490 7491 7492 7493 7494 7495 7496 7497 7498 7499 7500 7501 7502 7503 7504 7505 7506 7507 7508 7509 7510 7511 7512 7513 7514 7515 7516 7517 7518 7519 7520 7521 7522 7523 7524 7525 7526 7527 7528 7529 7530 7531 7532 7533 7534 7535 7536 7537 7538 7539 7540 7541 7542 7543 7544 7545 7546 7547 7548 7549 7550 7551 7552 7553 7554 7555 7556 7557 7558 7559 7560 7561 7562 7563 7564 7565 7566 7567 7568 7569 7570 7571 7572 7573 7574 7575 7576 7577 7578 7579 7580 7581 7582 7583 7584 7585 7586 7587 7588 7589 7590 7591 7592 7593 7594 7595 7596 7597 7598 7599 7600 7601 7602 7603 7604 7605 7606 7607 7608 7609 7610 7611 7612 7613 7614 7615 7616 7617 7618 7619 7620 7621 7622 7623 7624 7625 7626 7627 7628 7629 7630 7631 7632 7633 7634 7635 7636 7638 7639 7640 7641 7642 7643 7644 7645 7646 7647 7648 7649 7650 7651 7652 7653 7654 7655 7656 7657 7658 7659 7660 7661 7662 7663 7664 7665 7666 7667 7668 7669 7670 7671 7672 7673 7674 7675 7676 7677 7678 7679 7680 7681 7682 7683 7684 7685 7686 7687 7688 7691 7692 7693 7694 7695 7697 7698 7699 7700 7701 7702 7703 7704 7705 7706 7707 7708 7709 7710 7711 7712 7713 7714 7715 7716 7717 7718 7719 7720 7721 7722 7723 7724 7725 7726 7727 7728 7729 7730 7731 7732 7733 7734 7735 7736 7737 7738 7739 7740 7741 7742 7743 7744 7745 7746 7748 7749 7750 7751 7752 7753 7754 7755 7756 7757 7758 7759 7760 7761 7762 7763 7764 7765 7766 7767 7768 7769 7770 7771 7772 7773 7774 7775 7776 7777 7778 7779 7780 7781 7782 7783 7784 7785 7786 7787 7788 7789 7790 7791 7792 7793 7794 7795 7796 7797 7798 7799 7800 7801 7802 7803 7804 7805 7806 7807 7808 7809 7810 7811 7812 7813 7814 7815 7816 7817 7818 7819 7820 7821 7822 7823 7824 7825 7826 7827 7828 7829 7830 7831 7832 7833 7835 7836 7838 7839 7840 7841 7842 7843 7844 7845 7846 7847 7848 7849 7850 7851 7853 7854 7855 7856 7857 7858 7859 7860 7861 7862 7863 7864 7865 7866 7867 7868 7869 7870 7871 7872 7873 7874 7875 7876 7877 7878 7879 7880 7881 7882 7883 7884 7885 7886 7887 7888 7889 7890 7891 7892 7893 7894 7895 7896 7897 7898 7899 7900 7901 7902 7903 7904 7905 7906 7907 7908 7909 7910 7916 7917 7918 7919 7920 7921 7922 7923 7924 7925 7927 7928 7929 7930 7931 7932 7933 7934 7935 7936 7937 7938 7939 7940 7941 7942 7943 7944 7945 7946 7947 7948 7949 7950 7951 7952 7953 7954 7955 7956 7958 7959 7960 7961 7962 7964 7965 7966 7967 7968 7969 7970 7971 7972 7973 7974 7975 7976 7977 7978 7979 7980 7981 7982 7983 7984 7985 7986 7987 7989 7990 7991 7993 7994 7995 8525 8528 8536 8538 8539 8563 8564 8565 8570 8571 8572 8573 8574 8575 8576 8577 8578 8579 8580 8581 8582 8583 8584 8585 8586 8587 8588 8589 8590 8591 8592 8593 8594 8595 8596 8597 8598 8599 8600 8601 8602 8603 8604 8605 8606 8607 8608 8609 8610 8611 8612 8613 8614 8615 8616 8617 8618 8619 8620 8621 8622 8623 8624 8625 8626 8627 8628 8629 8630 8631 8632 8633 8634 8635 8636 8637 8638 8639 8640 8641 8642 8643 8644 8645 8646 8647 8649 8650 8651 8652 8653 8654 8655 8656 8657 8658 8659 8660 8661 8662 8663 8664 8665 8666 8667 8668 8669 8670 8671 8672 8673 8674 8675 8676 8677 8678 8679 8680 8681 8682 8683 8684 8685 8686 8687 8688 8689 8690 8691 8692 8693 8695 8696 8697 8698 8699 8700 8701 8702 8703 8704 8705 8706 8707 8708 8709 8710 8711 8712 8713 8714 8715 8716 8718 8719 8720 8721 8722 8723 8724 8725 8726 8727 8729 8730 8731 8732 8733 8734 8735 8736 8737 8738 8739 8740 8741 8742 8743 8744 8745 8746 8747 8748 8749 8750 8752 8753 8754 8755 8756 8757 8758 8759 8760 8761 8762 8763 8764 8765 8766 8767 8769 8770 8771 8772 8773 8774 8775 8776 8777 8778 8779 8780 8781 8782 8783 8784 8785 8786 8787 8788 8789 8790 8791 8793 8794 8795 8796 8797 8798 8799 8800 8801 8802 8803 8804 8805 8806 8807 8808 8809 8811 8812 8814 8815 8817 8818 8819 8820 8821 8822 8823 8824 8826 8827 8828 8829 8830 8831 8832 8833 8834 8835 8837 8839 8840 8841 8842 8843 8844 8845 8846 8847 8848 8849 8850 8851 8852 8853 8854 8855 8856 8857 8858 8859 8860 8861 8863 8864 8865 8866 8867 8868 8869 8870 8871 8872 8873 8874 8877 8878 8879 8880 8881 8882 8883 8884 8885 8886 8887 8889 8891 8892 8894 8895 8897 8898 8899 8901 8902 8903 8904 8905 8906 8907 8908 8910 8911 8919 8925 8926 8934 8939 8940 8942 8944 8945 8946 9074 9075 9076 9077 9078 9079 9080 9081 9082 9083 9084 9085 9086 9087 9089 9091 9095 9096 9113 9114 9117 9119 9122 9124 9126 9127 9130 9132 9133 9134 9140 9142 9144 9145 9146 9149 9150 9151 9155 9156 9157 9158 9160 9161 9162 9163 9164 9165 9166 9167 9168 9169 9170 9171 9172 9173 9175 9176 9177 9178 9179 9180 9181 9182 9183 9184 9185 9186 9187 9188 9189 9190 9191 9192 9193 9195 9196 9197 9199 9201 9203 9205 9206 9207 9208 9209 9210 9211 9212 9213 9214 9215 9216 9217 9221 9222 9223 9224 9225 9226 9227 9228 9229 9230 9231 9232 9234 9235 9236 9237 9238 9239 9240 9241 9242 9243 9244 9245 9247 9249 9261 9262 9263 9270 9278 9279 9281 9284 9285 9289 9299 9301 9309 9311 9313 9704 9705 9707 9709 9712 9713 9714 9715 9720 9721 9722 9723 9726 9727 9728 9732 9733 9734 9736 9737 9739 9790 9796 9799 9802 9807 9931 9934 9936 9937 9941 9942 9943 9945 9946 9948 9949 9950 9951 9952 9953 9954 9955 9956 9957 9958 9959 9960 9961 9962 9963 9964 9965 9966 9967 9968 9969 9970 9971 9972 9973 9974 9975 9976 9977 9978 9979 9980 9981 9982 9983 9984 9985 9986 9987 9988 9989 9990 9991 9992 9993 9994 9995 9996 9997 9998 9999 10000 10001 10002 10003 10004 10005 10006 10007 10008 10009 10010 10011 10012 10013 10014 10015 10016 10017 10018 10019 10020 10022 10023 10024 10025 10026 10027 10028 10029 10030 10031 10032 10033 10034 10035 10036 10037 10038 10039 10040 10041 10042 10043 10044 10045 10046 10047 10048 10049 10050 10051 10052 10053 10054 10055 10056 10057 10058 10059 10060 10061 10062 10063 10064 10065 10066 10067 10068 10069 10070 10071 10072 10073 10074 10075 10076 10077 10078 10079 10080 10081 10082 10083 10084 10085 10086 10087 10088 10089 10090 10094 10095 10096 10097 10098 10099 10100 10101 10102 10103 10104 10105 10106 10107 10108 10109 10110 10111 10112 10113 10114 10115 10116 10117 10118 10119 10120 10121 10122 10123 10124 10125 10126 10127 10128 10129 10130 10131 10132 10133 10134 10135 10136 10137 10138 10139 10140 10141 10144 10145 10146 10152 10153 10156 10162 10164 10166 10169 10172 10174 10175 10177 10178 10179 10180 10181 10182 10183 10184 10185 10186 10187 10188 10189 10190 10191 10192 10193 10194 10195 10196 10197 10198 10199 10200 10201 10202 10203 10204 10205 10206 10207 10208 10209 10210 10211 10212 10213 10222 10227 10228 10236 10239 10241 10242 10243 10244 10245 10246 10247 10248 10249 10250 10251 10252 10261 10262 10263 10264 10265 10266 10267 10268 10274 10278 10279 10283 10287 10289 10291 10292 10294 10296 10297 10298 10300 10301 10302 10303 10306 10307 10308 10311 10312 10313 10314 10315 10316 10318 10319 10320 10321 10322 10323 10324 10325 10326 10327 10328 10329 10330 10332 10333 10335 10337 10338 10340 10342 10343 10344 10346 10347 10348 10349 10350 10351 10352 10353 10354 10355 10356 10357 10358 10359 10360 10361 10364 10365 10366 10367 10368 10369 10370 10371 10372 10373 10374 10375 10376 10377 10378 10379 10380 10381 10382 10383 10384 10385 10386 10387 10388 10389 10390 10391 10392 10393 10396 10397 10398 10401 10402 10403 10404 10405 10407 10408 10409 10410 10411 10412 10413 10415 10416 10417 10419 10420 10421 10422 10423 10424 10425 10426 10427 10428 10429 10430 10431 10432 10433 10434 10435 10436 10437 10438 10439 10440 10441 10442 10443 10444 10445 10446 10447 10448 10449 10450 10451 10452 10453 10454 10455 10456 10457 10458 10459 10460 10461 10462 10463 10464 10465 10466 10467 10468 10469 10470 10471 10472 10473 10474 10475 10476 10477 10478 10479 10480 10481 10482 10483 10484 10485 10486 10487 10488 10489 10490 10491 10492 10494 10495 10496 10497 10498 10499 10500 10501 10502 10503 10504 10505 10506 10507 10508 10509 10510 10511 10512 10513 10514 10515 10516 10517 10518 10519 10526 10529 10533 10535 10536 10538 10539 10541 10542 10543 10544 10545 10546 10547 10548 10549 10551 10552 10553 10554 10555 10558 10559 10561 10564 10567 10568 10570 10572 10573 10574 10575 10576 10577 10578 10579 10580 10581 10582 10583 10584 10585 10586 10587 10588 10589 10590 10591 10592 10593 10594 10595 10596 10597 10598 10599 10600 10601 10602 10603 10604 10605 10606 10607 10608 10609 10610 10611 10612 10613 10614 10615 10616 10617 10618 10619 10620 10621 10622 10623 10624 10625 10626 10627 10628 10629 10630 10631 10632 10633 10634 10635 10636 10637 10638 10639 10640 10641 10642 10643 10644 10645 10646 10647 10648 10649 10650 10651 10652 10653 10654 10655 10656 10657 10658 10659 10660 10661 10662 10663 10664 10665 10666 10667 10668 10669 10670 10671 10672 10673 10674 10675 10676 10677 10678 10679 10680 10681 10682 10683 10684 10685 10686 10687 10688 10689 10690 10691 10692 10693 10694 10695 10696 10697 10698 10699 10700 10701 10702 10703 10704 10705 10706 10707 10708 10709 10710 10711 10712 10713 10714 10715 10716 10717 10718 10719 10720 10721 10722 10723 10724 10725 10726 10727 10728 10729 10730 10731 10732 10733 10734 10735 10736 10737 10738 10739 10740 10741 10742 10743 10744 10745 10746 10747 10748 10749 10750 10751 10752 10753 10754 10755 10756 10757 10758 10759 10760 10761 10763 10764 10765 10767 10768 10769 10770 10771 10772 10773 10774 10775 10776 10777 10778 10779 10780 10781 10782 10783 10784 10785 10786 10787 10788 10789 10790 10791 10792 10793 10794 10795 10796 10797 10798 10799 10800 10801 10802 10803 10804 10805 10806 10807 10808 10809 10810 10811 10812 10813 10814 10815 10816 10817 10818 10819 10820 10821 10822 10823 10824 10825 10826 10827 10828 10829 10830 10831 10832 10833 10834 10835 10836 10837 10838 10839 10840 10841 10842 10843 10844 10845 10846 10847 10848 10849 10850 10851 10853 10854 10855 10856 10857 10858 10859 10860 10861 10862 10863 10864 10865 10866 10867 10868 10869 10870 10871 10872 10873 10874 10875 10876 10877 10878 10879 10880 10881 10882 10883 10884 10885 10886 10887 10888 10889 10890 10891 10892 10893 10894 10895 10896 10897 10898 10899 10900 10901 10902 10903 10904 10905 10906 10907 10908 10909 10910 10912 10914 10915 10916 10917 10918 10919 10920 10921 10922 10923 10924 10925 10926 10927 10928 10929 10930 10931 10932 10933 10934 10935 10936 10937 10938 10939 10940 10941 10942 10943 10944 10945 10946 10947 10948 10949 10950 10951 10952 10953 10954 10955 10956 10957 10958 10959 10960 10961 10962 10963 10964 10965 10966 10967 10968 10969 10970 10971 10972 10973 10974 10975 10976 10977 10978 10979 10980 10981 10982 10983 10984 10985 10986 10987 10988 10989 10991 10993 10995 10997 11000 11021 11022 11023 11030 11039 11040 11041 11042 11043 11044 11045 11046 11047 11048 11049 11050 11051 11052 11053 11054 11055 11056 11058 11059 11060 11061 11062 11064 11065 11066 11067 11068 11069 11120 11161 11162 11163 11164 11165 11166 11167 11168 11169 11170 11171 11172 11173 11174 11175 11176 11177 11178 11179 11180 11181 11182 11183 11184 11185 11186 11187 11188 11189 11190 11191 11192 11193 11194 11195 11196 11197 11200 11202 11203 11207 11208 11210 11212 11214 11216 11218 11226 11250 11251 11252 11253 11255 11256 11257 11313 11314 11315 11316 11317 11318 11319 11320 11321 11322 11323 11324 11333 11334 11335 11336 11337 11342 11346 11352 11353 11356 11357 11360 11365 11366 11367 11368 11369 11370 11371 11372 11373 11374 11375 11376 11377 11378 11379 11380 11381 11382 11383 11384 11385 11386 11387 11388 11390 11391 11393 11394 11398 11399 11406 11585 11592 11594 11595 11596 11598 11599 11600 11601 11602 11603 11604 11607 11608 11609 11640 11641 11680 11683 11686 11687 11688 11690 11691 11692 11693 11709 11729 11730 11731 11732 11733 11734 11736 11737 11754 11755 11756 11757 11758 11759 11760 11761 11762 11764 11771 11772 11773 11786 11789 11790 11886 11887 11889 11892 11893 11908 11909 11910 11911 11912 11913 11914 11915 11916 11917 11918 11919 11923 11925 11926 11927 11928 11929 11930 11931 11932 11933 11934 11935 11936 11937 11938 11939 11940 11942 11947 11951 11965 11968 11971 11980 11981 11982 11984 11996 11997 11998 11999 12000 12001 12099 12102 12103 12104 12105 12124 12126 12128 12129 12130 12151 12161 12170 12171 12172 12173 12174 12175 12176 12177 12178 12179 12180 12181 12182 12183 12184 12195 12196 12197 12227 12228 12229 12230 12231 12232 12233 12234 12237 12238 12266 12269 12394 12422 12423 12424 12425 12427 12428 12429 12432 12433 12436 12437 12438 12439 12442 12443 12444 12445 12447 12448 12450 12451 12453 12455 12456 12457 12458 12459 12460 12461 12462 12469 12470 12471 12473 12474 12478 12479 12480 12482 12484 12487 12488 12489 12490 12491 12492 12495 12496 12497 12498 12499 12501 12502 12503 12504 12505 12506 12507 12508 12509 12510 12511 12512 12513 12514 12515 12516 12517 12518 12519 12521 12522 12523 12524 12525 12526 12527 12528 12530 12544 12545 12546 12547 12548 12549 12550 12551 12552 12553 12554 12555 12556 12557 12558 12559 12560 12561 12562 12563 12566 12567 12568 12569 12570 12571 12572 12573 12574 12575 12576 12577 12578 12579 12580 12582 12583 12584 12585 12586 12587 12588 12589 12592 12593 12594 12595 12596 12598 12600 12602 12603 12604 12605 12606 12607 12608 12609 12610 12611 12612 12613 12614 12615 12616 12617 12618 12619 12620 12621 12622 12623 12624 12625 12626 12627 12628 12629 12630 12631 12632 12633 12634 12635 12636 12637 12638 12639 12640 12641 12642 12643 12644 12645 12646 12647 12648 12649 12650 12651 12652 12653 12654 12655 12656 12657 12658 12659 12660 12661 12662 12663 12664 12665 12666 12667 12668 12669 12670 12671 12672 12673 12674 12675 12676 12677 12678 12679 12680 12681 12682 12683 12684 12685 12686 12687 12688 12689 12690 12691 12692 12693 12694 12695 12696 12697 12698 12699 12700 12701 12702 12703 12704 12705 12706 12707 12708 12709 12710 12711 12712 12713 12714 12715 12716 12717 12718 12719 12720 12721 12722 12723 12724 12725 12726 12727 12728 12729 12730 12731 12732 12733 12734 12735 12736 12737 12738 12739 12741 12742 12743 12744 12745 12756 12757 12758 12761 12763 12766 12770 12771 12773 12774 12775 12777 12784 12785 12786 12787 12788 12791 12792 12794 12797 12799 12800 12801 12803 12804 12805 12807 12808 12809 12811 12812 12813 12814 12815 12816 12817 12819 12820 12821 12823 12825 12827 12828 12830 12831 12832 12834 12835 12836 12837 12838 12842 12843 12844 12847 12848 12849 12851 12855 12856 12858 12859 12861 12865 12866 12868 12870 12879 12985 12987 12988 12989 12990 12991 12992 12993 12994 12995 12996 12997 12998 12999 13000 13001 13002 13003 13004 13005 13006 13008 13010 13011 13012 13013 13014 13016 13017 13018 13019 13021 13022 13023 13024 13025 13026 13027 13028 13029 13030 13032 13033 13034 13035 13036 13037 13038 13039 13040 13041 13043 13044 13046 13047 13048 13049 13050 13051 13052 13053 13054 13055 13056 13057 13058 13059 13060 13061 13062 13063 13064 13065 13066 13067 13068 13069 13070 13071 13072 13073 13074 13075 13076 13077 13078 13079 13080 13081 13082 13083 13084 13085 13086 13087 13089 13090 13091 13092 13093 13094 13095 13096 13097 13098 13099 13100 13101 13102 13103 13104 13105 13106 13107 13108 13109 13110 13111 13112 13113 13114 13115 13116 13117 13118 13119 13120 13121 13122 13123 13124 13125 13126 13127 13128 13129 13130 13131 13132 13133 13134 13135 13136 13137 13138 13139 13140 13141 13142 13143 13144 13145 13146 13147 13148 13149 13150 13151 13152 13153 13154 13155 13156 13157 13158 13159 13160 13161 13162 13163 13164 13165 13166 13167 13168 13169 13170 13171 13172 13173 13174 13175 13176 13177 13178 13179 13180 13181 13182 13183 13184 13185 13186 13187 13188 13189 13190 13191 13192 13193 13194 13195 13196 13197 13198 13199 13200 13201 13202 13203 13204 13205 13206 13207 13208 13209 13210 13211 13212 13213 13214 13215 13216 13217 13218 13219 13220 13221 13222 13223 13224 13225 13226 13227 13228 13229 13230 13231 13232 13233 13234 13235 13236 13237 13238 13239 13240 13241 13242 13243 13244 13245 13246 13247 13248 13249 13250 13251 13252 13253 13254 13255 13256 13257 13258 13259 13260 13261 13262 13263 13264 13265 13266 13267 13268 13269 13270 13271 13272 13273 13274 13275 13276 13277 13278 13279 13280 13281 13282 13283 13284 13285 13286 13287 13288 13289 13290 13291 13292 13293 13294 13295 13296 13297 13298 13299 13300 13301 13302 13303 13304 13305 13306 13307 13308 13309 13310 13311 13312 13313 13314 13315 13316 13317 13318 13319 13320 13321 13322 13323 13324 13325 13326 13327 13328 13329 13330 13331 13332 13333 13334 13335 13336 13337 13338 13339 13340 13341 13342 13343 13344 13345 13346 13347 13348 13349 13350 13351 13352 13353 13354 13355 13356 13357 13358 13359 13360 13361 13362 13363 13364 13365 13366 13367 13368 13369 13370 13371 13372 13373 13374 13375 13376 13377 13378 13379 13380 13381 13382 13383 13384 13385 13386 13387 13388 13389 13390 13391 13392 13393 13394 13395 13396 13397 13398 13399 13400 13401 13402 13403 13404 13405 13406 13407 13408 13409 13410 13411 13412 13413 13414 13415 13416 13417 13418 13419 13420 13421 13422 13423 13424 13425 13426 13427 13428 13429 13430 13431 13432 13433 13434 13435 13436 13437 13438 13439 13440 13441 13442 13443 13444 13445 13446 13447 13448 13449 13450 13451 13452 13453 13454 13455 13456 13457 13458 13459 13460 13461 13462 13463 13464 13465 13466 13467 13468 13469 13470 13471 13472 13474 13475 13476 13477 13478 13479 13480 13481 13482 13483 13484 13485 13486 13487 13488 13489 13490 13491 13492 13493 13494 13495 13496 13497 13498 13499 13500 13501 13502 13503 13504 13505 13506 13507 13508 13509 13510 13511 13512 13513 13514 13515 13516 13517 13518 13519 13520 13521 13528 13530 13531 13533 13534 13535 13536 13537 13538 13539 13540 13541 13542 13543 13544 13545 13546 13547 13548 13549 13550 13551 13552 13554 13555 13556 13557 13558 13559 13560 13561 13562 13563 13564 13565 13566 13567 13568 13569 13570 13571 13572 13573 13574 13575 13576 13577 13578 13579 13580 13581 13582 13583 13584 13585 13586 13587 13588 13589 13590 13591 13592 13593 13594 13595 13596 13597 13598 13599 13600 13601 13602 13603 13604 13605 13606 13607 13608 13609 13610 13611 13612 13613 13614 13615 13616 13617 13618 13619 13620 13621 13622 13623 13624 13625 13626 13627 13628 13629 13630 13631 13632 13633 13634 13635 13636 13637 13638 13639 13640 13641 13642 13643 13644 13645 13646 13647 13648 13649 13650 13651 13652 13653 13654 13655 13656 13657 13658 13659 13660 13661 13662 13663 13664 13665 13666 13667 13668 13669 13670 13671 13672 13673 13674 13675 13676 13677 13678 13679 13680 13681 13682 13683 13684 13685 13686 13687 13688 13689 13690 13691 13692 13693 13694 13695 13696 13713 13715 13717 13721 13722 13723 13728 13729 13736 13737 13738 13741 13742 13743 13744 13748 13749 13751 13752 13753 13754 13757 13758 13760 13761 13762 13763 13764 13765 13766 13767 13769 13770 13771 13772 13988 13995 14243 14244 14245 14255 14256 14259 14261 14264 14265 14266 14267 14268 14269 14296 14297 14299 14301 14302 14303 14305 14307 14308 14309 14311 14312 14313 14315 14316 14318 14319 14320 14321 14322 14323 14324 14325 14326 14327 14328 14329 14330 14338 14565 14566 14567 14568 14569 14570 14571 14572 14574 14575 14583 14585 14591 14593 14594 14596 14598 14599 14600 14601 14602 14603 14604 14608 14609 14610 14611 14616 14618 14619 14620 14621 14623 14624 14626 14627 14632 14634 14640 14641 14642 14645 14646 14647 14653 14654 14657 14658 14659 14661 14664 14665 14666 14669 14670 14671 14672 14673 14674 14675 14676 14677 14678 14679 14680 14681 14682 14683 14684 14692 14693 14694 14701 14703 14704 14705 14707 14708 14709 14710 14711 14712 14713 14714 14715 14716 14717 14721 14724 14731 14744 14753 14756 14757 14759 14761 14762 14767 14768 14773 14774 14775 14776 14777 14779 14780 14781 14782 14783 14784 14785 14786 14787 14788 14790 14791 14794 14795 14796 14797 14799 14800 14801 14802 14803 14804 14805 14806 14808 14809 14810 14811 14812 14813 14815 14816 14817 14818 14819 14820 14821 14823 14826 14827 14829 14834 14835 14836 14838 14839 14842 14843 14846 14851 14852 14855 14856 14859 14860 14868 14869 14870 14876 14878 14882 14883 14884 14890 14891 14893 14897 14898 14899 14901 14906 14909 14911 14914 14915 14916 14917 14918 14922 14924 14925 14926 14927 14928 14930 14931 14932 14933 14934 14936 14937 14939 14940 14941 14943 14944 14945 14946 14947 14948 14949 14951 14952 14953 14955 14956 14957 14958 14959 14960 14961 14963 14964 14965 14967 14970 14971 14972 14973 14974 14976 14977 14979 14983 14984 14986 14988 14992 14993 14997 14998 15000 15004 15005 15006 15009 15011 15015 15017 15019 15023 15024 15027 15028 15029 15031 15034 15036 15040 15041 15042 15043 15044 15047 15048 15050 15052 15053 15055 15057 15058 15059 15061 15069 15071 15073 15074 15078 15079 15083 15089 15091 15093 15094 15096 15099 15103 15105 15108 15109 15110 15111 15112 15113 15114 15115 15116 15117 15118 15119 15120 15121 15122 15127 15129 15130 15132 15134 15135 15136 15137 15164 }
}