﻿dna_arturo_sina_lioncost = {
    portrait_info = {
        genes={                 
            hair_color={ 124 244 124 244 }
            skin_color={ 102 69 102 69 }
            eye_color={ 30 230 30 230 }
            gene_cheek_fat={ "cheek_fat" 177 "cheek_fat" 177 }
            gene_cheek_forward={ "cheek_forward" 121 "cheek_forward" 121 }
            gene_cheek_height={ "cheek_height" 130 "cheek_height" 130 }
            gene_cheek_prom={ "cheek_prom" 140 "cheek_prom" 140 }
            gene_cheek_width={ "cheek_width" 162 "cheek_width" 162 }
            gene_chin_forward={ "chin_forward" 134 "chin_forward" 134 }
            gene_chin_height={ "chin_height" 128 "chin_height" 128 }
            gene_chin_width={ "chin_width" 114 "chin_width" 114 }
            gene_ear_angle={ "ear_angle" 203 "ear_angle" 203 }
            gene_ear_inner_shape={ "ear_inner_shape" 116 "ear_inner_shape" 116 }
            gene_ear_lower_bend={ "ear_lower_bend" 123 "ear_lower_bend" 123 }
            gene_ear_out={ "ear_out" 195 "ear_out" 195 }
            gene_ear_size={ "ear_size" 133 "ear_size" 133 }
            gene_ear_upper_bend={ "ear_upper_bend" 119 "ear_upper_bend" 119 }
            gene_eye_angle={ "eye_angle" 128 "eye_angle" 128 }
            gene_eye_depth={ "eye_depth" 138 "eye_depth" 138 }
            gene_eye_distance={ "eye_distance" 120 "eye_distance" 120 }
            gene_eye_height={ "eye_height" 117 "eye_height" 117 }
            gene_eye_shut={ "eye_shut" 91 "eye_shut" 91 }
            gene_eye_corner_def={ "eye_corner_def" 114 "eye_corner_def" 114 }
            gene_eye_corner_depth_min={ "eye_corner_depth_min" 132 "eye_corner_depth_min" 132 }
            gene_eye_fold_droop={ "eye_fold_droop" 101 "eye_fold_droop" 101 }
            gene_eye_fold_shape={ "eye_fold_shape" 139 "eye_fold_shape" 139 }
            gene_eye_size={ "eye_size" 133 "eye_size" 133 }
            gene_eye_upper_lid_size={ "eye_upper_lid_size" 119 "eye_upper_lid_size" 119 }
            gene_forehead_angle={ "forehead_angle" 100 "forehead_angle" 100 }
            gene_forehead_brow_curve={ "forehead_brow_curve" 115 "forehead_brow_curve" 115 }
            gene_forehead_brow_forward={ "forehead_brow_forward" 140 "forehead_brow_forward" 140 }
            gene_forehead_brow_height={ "forehead_brow_height" 124 "forehead_brow_height" 124 }
            gene_forehead_brow_inner_height={ "forehead_brow_inner_height" 122 "forehead_brow_inner_height" 122 }
            gene_forehead_brow_outer_height={ "forehead_brow_outer_height" 188 "forehead_brow_outer_height" 188 }
            gene_forehead_brow_width={ "forehead_brow_width" 132 "forehead_brow_width" 132 }
            gene_forehead_height={ "forehead_height" 26 "forehead_height" 26 }
            gene_forehead_roundness={ "forehead_roundness" 115 "forehead_roundness" 115 }
            gene_forehead_width={ "forehead_width" 134 "forehead_width" 134 }
            gene_head_height={ "head_height" 122 "head_height" 122 }
            gene_head_profile={ "head_profile" 140 "head_profile" 140 }
            gene_head_top_height={ "head_top_height" 124 "head_top_height" 124 }
            gene_head_top_width={ "head_top_width" 132 "head_top_width" 132 }
            gene_head_width={ "head_width" 148 "head_width" 148 }
            gene_jaw_angle={ "jaw_angle" 56 "jaw_angle" 56 }
            gene_jaw_def={ "jaw_def" 132 "jaw_def" 132 }
            gene_jaw_forward={ "jaw_forward" 121 "jaw_forward" 121 }
            gene_jaw_height={ "jaw_height" 172 "jaw_height" 172 }
            gene_jaw_width={ "jaw_width" 199 "jaw_width" 199 }
            gene_mouth_corner_height={ "mouth_corner_height" 138 "mouth_corner_height" 124 }
            gene_mouth_forward={ "mouth_forward" 129 "mouth_forward" 129 }
            gene_mouth_height={ "mouth_height" 122 "mouth_height" 122 }
            gene_mouth_lower_lip_def={ "mouth_lower_lip_def" 135 "mouth_lower_lip_def" 135 }
            gene_mouth_lower_lip_full={ "mouth_lower_lip_full" 136 "mouth_lower_lip_full" 136 }
            gene_mouth_lower_lip_pads={ "mouth_lower_lip_pads" 128 "mouth_lower_lip_pads" 128 }
            gene_mouth_lower_lip_size={ "mouth_lower_lip_size" 168 "mouth_lower_lip_size" 168 }
            gene_mouth_lower_lip_width={ "mouth_lower_lip_width" 114 "mouth_lower_lip_width" 114 }
            gene_mouth_open={ "mouth_open" 167 "mouth_open" 134 }
            gene_mouth_philtrum_curve={ "mouth_philtrum_curve" 125 "mouth_philtrum_curve" 125 }
            gene_mouth_philtrum_def={ "mouth_philtrum_def" 127 "mouth_philtrum_def" 127 }
            gene_mouth_philtrum_width={ "mouth_philtrum_width" 131 "mouth_philtrum_width" 131 }
            gene_mouth_upper_lip_curve={ "mouth_upper_lip_curve" 60 "mouth_upper_lip_curve" 60 }
            gene_mouth_upper_lip_def={ "mouth_upper_lip_def" 114 "mouth_upper_lip_def" 114 }
            gene_mouth_upper_lip_full={ "mouth_upper_lip_full" 25 "mouth_upper_lip_full" 25 }
            gene_mouth_upper_lip_width={ "mouth_upper_lip_width" 136 "mouth_upper_lip_width" 136 }
            gene_mouth_upper_lip_size={ "mouth_upper_lip_size" 169 "mouth_upper_lip_size" 169 }
            gene_mouth_width={ "mouth_width" 132 "mouth_width" 132 }
            gene_nose_curve={ "nose_curve" 161 "nose_curve" 161 }
            gene_nose_forward={ "nose_forward" 133 "nose_forward" 133 }
            gene_nose_hawk={ "nose_hawk" 135 "nose_hawk" 135 }
            gene_nose_height={ "nose_height" 114 "nose_height" 114 }
            gene_nose_length={ "nose_length" 123 "nose_length" 123 }
            gene_nose_nostril_angle={ "nose_nostril_angle" 119 "nose_nostril_angle" 119 }
            gene_nose_nostril_height={ "nose_nostril_height" 155 "nose_nostril_height" 155 }
            gene_nose_nostril_width={ "nose_nostril_width" 135 "nose_nostril_width" 135 }
            gene_nose_ridge_angle={ "nose_ridge_angle" 105 "nose_ridge_angle" 105 }
            gene_nose_ridge_def={ "nose_ridge_def" 163 "nose_ridge_def" 163 }
            gene_nose_ridge_def_min={ "nose_ridge_def_min" 140 "nose_ridge_def_min" 140 }
            gene_nose_ridge_width={ "nose_ridge_width" 199 "nose_ridge_width" 199 }
            gene_nose_size={ "nose_size" 78 "nose_size" 78 }
            gene_nose_tip_angle={ "nose_tip_angle" 188 "nose_tip_angle" 188 }
            gene_nose_tip_forward={ "nose_tip_forward" 144 "nose_tip_forward" 144 }
            gene_nose_tip_width={ "nose_tip_width" 153 "nose_tip_width" 153 }
            gene_neck_length={ "neck_length" 111 "neck_length" 111 }
            gene_neck_width={ "neck_width" 106 "neck_width" 106 }
            gene_bs_body_type={ "body_fat_head_fat_medium" 127 "body_fat_head_fat_medium" 127 }
            gene_height={ "normal_height" 127 "normal_height" 127 }
            gene_age={ "old_1" 127 "old_1" 127 }
            gene_old_ears={ "old_ears_01" 127 "old_ears_01" 127 }
            gene_old_eyes={ "old_eyes_02" 255 "old_eyes_02" 255 }
            gene_old_forehead={ "old_forehead_02" 255 "old_forehead_02" 255 }
            gene_old_mouth={ "old_mouth_02" 255 "old_mouth_02" 255 }
            gene_old_nose={ "old_nose_01" 127 "old_nose_01" 127 }
            gene_complexion={ "complexion_01" 0 "complexion_01" 0 }
            gene_stubble={ "stubble_full" 255 "stubble_low" 127 }
            gene_crowfeet={ "crowfeet_03" 10 "crowfeet_03" 10 }
            gene_face_dacals={ "face_dacal_05" 255 "face_dacal_04" 255 }
            gene_frown={ "frown_03" 0 "frown_01" 8 }
            gene_surprise={ "surprise_01" 25 "surprise_01" 25 }
            gene_eyebrows_shape={ "close_spacing_high_thickness" 234 "close_spacing_high_thickness" 234 }
            gene_eyebrows_fullness={ "layer_2_low_thickness" 213 "layer_2_low_thickness" 213 }
            hairstyles={ "european_hairstyles" 65 "arabic_hairstyles" 240 }
            beards={ "european_beards" 103 "arabic_beards" 25 }
            mustaches={ "european_mustaches" 90 "arabic_mustaches" 36 }
            props={ "no_prop" 0 "no_prop" 0 }
            eye_accessory={ "normal_eyes" 0 "normal_eyes" 0 }
            eye_lashes_accessory={ "normal_eyelashes" 0 "normal_eyelashes" 0 }
            teeth_accessory={ "normal_teeth" 0 "normal_teeth" 0 }
            POD_NOSschnoz={ "nosies" 0 "nosies" 0 }
            skin_color_override={ "default_1" 127 "default_1" 127 }
            race_gene_mer_ears_01={ "default_1" 127 "default_1" 127 }
            race_gene_mer_ears_02={ "default_1" 127 "default_1" 127 }
            outfits={ "no_outfit" 1 "all_outfits" 0 }
            coats={ "european_coats" 186 "all_coats" 0 }
            civilian_coats={ "no_civilian_coat" 0 "all_civilian_coats" 0 }
            epaulettes={ "all_epaulettes" 163 "all_epaulettes" 0 }
            sashes={ "all_sashes" 255 "all_sashes" 0 }
            medals={ "no_medals" 135 "all_medals" 0 }
            belts={ "all_belts" 147 "all_belts" 0 }
            waistcoats={ "no_waistcoat" 0 "all_waistcoats" 0 }
            necklaces={ "all_necklaces" 0 "all_necklaces" 0 }
            aiguillettes={ "no_aiguillettes" 2 "all_aiguillettes" 0 }
            legwear={ "brazilian_white_legwear" 0 "all_legwear" 0 }
            power_blocks={ "all_shirts" 0 "all_shirts" 0 }
            headgear={ "no_headgear" 0 "all_headgear" 0 }  
        }
      enabled=yes
    }
}