﻿anbennarian = {
}

alenic = {
}

businori = {
}

escanni = {
}

dostanorian = {
}

lencori = {
}

gerudian = {
}

reachman = {
}

shirefoot = {
}

moon_elven = {
	
}

trollsbayer = {
}

triarchic = {
}





bulwari = {
}

triunic = {
}

ynnic = {
}

ruined_sea_trait = {}

eordan = {
}

harafic = {
}

noruinic = {
}

kinbond = {
}

leechman_trait = {
}

effelai_i = {
}

east_effelai = {
}

amadian = {
}

devandi_trait = {
}

taychendi = {
}

kheionai = {
}

degenerated_elf = {
}

yan = {
}

wuhyun = {
}

kai = {
}

bom = {
}

yanglam = {
}

odheongun = {
}

khantaar = {
}

besholgi = {
}


mechanical = {
}


#Dwarovar
dwarven_surface_dwarf = {}
dwarven_grudgeholder_dwarf = {}
dwarven_ordstunic_dwarf = {}
dwarven_segbandalic_dwarf = {}
dwarven_eastern_dwarf = {}

goblinoid = {}
draconic = {}
giantkin = {}



#Sarhal
kheteratan_trait = {}
akasi_trait = {}
fangaulan_trait = {}
vurebindu_trait = {}
irsukuban_trait = {}
mengi_trait = {}
inyaswarosan_trait = {}
baashidi_trait = {}
vyzemby_trait = {}

kitageztur_trait = {}
kitmakhara_trait = {}

sharkyatash_trait = {}
shartash_trait = {}
arratash_trait = {}

yaikva_trait = {}
aquatic_trait = {}