﻿namespace = cholera

cholera.1 = {
	type = country_event
	placement = scope:cholera_state
	
	title = cholera.1.t
	desc = {
		first_valid = {
			# triggered_desc = {
			# 	desc = cholera.1.d1
			# 	trigger = {
			# 		exists = c:GBR
			# 		this = c:GBR
			# 	}
			# }
			triggered_desc = {
				desc = cholera.1.d2
				trigger = {
					always = yes
				}
			}
		}
	}
	flavor = cholera.1.f
	
	event_image = {
		video = "unspecific_sick_in_hospital"
	}

	on_created_soundeffect = "event:/SFX/UI/Alerts/event_appear"
	
	icon = "gfx/interface/icons/event_icons/event_skull.dds"
	
	duration = 3
	
	trigger = {
		NOT = { has_variable = john_snow }
		any_scope_state = {
			is_incorporated = yes
			relative_infrastructure <= 5
			any_scope_building = {
				is_building_type = building_urban_center
				level > 10
			}
		}
		OR = {
			AND = {
				has_technology_researched = urban_planning
				NOT = { has_technology_researched = modern_sewerage }
			}
			AND = {
				has_technology_researched = medical_degrees
				NOT = { has_technology_researched = pharmaceuticals }
			}
		}
	}

	immediate = {
		set_variable = john_snow
		random_scope_state = {
			limit = {
				is_incorporated = yes
				relative_infrastructure <= 5
				any_scope_building = {
					is_building_type = building_urban_center
					level > 10
				}
			}
			save_scope_as = cholera_state
		}
	}

	option = {
		name = cholera.1.a
		default_option = yes
		trigger = {
			has_technology_researched = urban_planning
			NOT = { has_technology_researched = modern_sewerage }
		}
		add_technology_progress = {
			progress = 3500
			technology = modern_sewerage
		}
		scope:cholera_state = {
			add_modifier = {
				name = cholera_modifier
				months = short_modifier_time
			}
		}
	}

	option = {
		name = cholera.1.b
		default_option = yes
		trigger = {
			has_technology_researched = medical_degrees
			NOT = { has_technology_researched = pharmaceuticals }
		}
		add_technology_progress = {
			progress = 3500
			technology = pharmaceuticals
		}
		scope:cholera_state = {
			add_modifier = {
				name = cholera_modifier
				months = short_modifier_time
			}
		}
	}
	option = {
		name = cholera.1.c
		trigger = {
			exists = c:GBR
			THIS = c:GBR
			ig:ig_intelligentsia = {
				is_marginal = no
			}
		}
		ig:ig_intelligentsia = {
			add_modifier = {
				name = john_snow_knows_nothing
				months = short_modifier_time
			}
		}
		scope:cholera_state = {
			add_modifier = {
				name = cholera_modifier
				months = short_modifier_time
			}
		}
	}
}